# Blender MTL File: 'Katana2.blend'
# Material Count: 7

newmtl Blade
Ns 440.999985
Ka 1.000000 1.000000 1.000000
Kd 0.800000 0.800000 0.800000
Ks 0.500000 0.500000 0.500000
Ke 0.000000 0.000000 0.000000
Ni 1.450000
d 1.000000
illum 3

newmtl Blade_sharp
Ns 699.842965
Ka 1.000000 1.000000 1.000000
Kd 0.800000 0.800000 0.800000
Ks 0.500000 0.500000 0.500000
Ke 0.000000 0.000000 0.000000
Ni 1.450000
d 1.000000
illum 3

newmtl GaurdDesign
Ns 374.950391
Ka 1.000000 1.000000 1.000000
Kd 0.800000 0.422177 0.089951
Ks 0.500000 0.500000 0.500000
Ke 0.000000 0.000000 0.000000
Ni 1.450000
d 1.000000
illum 3

newmtl Handle
Ns 285.917294
Ka 1.000000 1.000000 1.000000
Kd 0.026894 0.026894 0.026894
Ks 0.500000 0.500000 0.500000
Ke 0.000000 0.000000 0.000000
Ni 1.450000
d 1.000000
illum 2

newmtl Metal
Ns 481.825916
Ka 1.000000 1.000000 1.000000
Kd 0.123709 0.123709 0.123709
Ks 0.500000 0.500000 0.500000
Ke 0.000000 0.000000 0.000000
Ni 1.450000
d 1.000000
illum 3

newmtl Ring
Ns 411.362970
Ka 1.000000 1.000000 1.000000
Kd 0.800000 0.800000 0.800000
Ks 0.500000 0.500000 0.500000
Ke 0.000000 0.000000 0.000000
Ni 1.450000
d 1.000000
illum 3

newmtl Strips
Ns 76.165269
Ka 1.000000 1.000000 1.000000
Kd 0.026861 0.017519 0.013004
Ks 0.500000 0.500000 0.500000
Ke 0.000000 0.000000 0.000000
Ni 1.450000
d 1.000000
illum 2
