%YAML 1.1
%TAG !u! tag:unity3d.com,2011:
--- !u!1045 &1
EditorBuildSettings:
  m_ObjectHideFlags: 0
  serializedVersion: 2
  m_Scenes:
  - enabled: 0
    path: 
    guid: 00000000000000000000000000000000
  - enabled: 1
    path: Assets/BeatEmUp_GameTemplate3D/01_Game_TMNT_Donatello_Big_City.unity
    guid: fadcf5a695a8ec046bfb10a2b5836416
  m_configObjects: {}
