%YAML 1.1
%TAG !u! tag:unity3d.com,2011:
--- !u!1 &1006259840244872
GameObject:
  m_ObjectHideFlags: 0
  m_CorrespondingSourceObject: {fileID: 0}
  m_PrefabInstance: {fileID: 0}
  m_PrefabAsset: {fileID: 0}
  serializedVersion: 6
  m_Component:
  - component: {fileID: 4584882897708256}
  m_Layer: 0
  m_Name: Bip001 Head
  m_TagString: Untagged
  m_Icon: {fileID: 0}
  m_NavMeshLayer: 0
  m_StaticEditorFlags: 0
  m_IsActive: 1
--- !u!4 &4584882897708256
Transform:
  m_ObjectHideFlags: 0
  m_CorrespondingSourceObject: {fileID: 0}
  m_PrefabInstance: {fileID: 0}
  m_PrefabAsset: {fileID: 0}
  m_GameObject: {fileID: 1006259840244872}
  m_LocalRotation: {x: -1.865841e-13, y: -0.00000036312227, z: 0.1309216, w: 0.99139273}
  m_LocalPosition: {x: -0.12111267, y: 0.016499719, z: 0.0000000024601816}
  m_LocalScale: {x: 1.0000001, y: 1.0000001, z: 1}
  m_Children:
  - {fileID: 4574805179016260}
  - {fileID: 4687562018143992}
  - {fileID: 4977213713172678}
  - {fileID: 4923721964616182}
  m_Father: {fileID: 4096574857446700}
  m_RootOrder: 0
  m_LocalEulerAnglesHint: {x: 0, y: 0, z: 0}
--- !u!1 &1019050698215654
GameObject:
  m_ObjectHideFlags: 0
  m_CorrespondingSourceObject: {fileID: 0}
  m_PrefabInstance: {fileID: 0}
  m_PrefabAsset: {fileID: 0}
  serializedVersion: 6
  m_Component:
  - component: {fileID: 4363268514706814}
  m_Layer: 0
  m_Name: Bip001 L Clavicle
  m_TagString: Untagged
  m_Icon: {fileID: 0}
  m_NavMeshLayer: 0
  m_StaticEditorFlags: 0
  m_IsActive: 1
--- !u!4 &4363268514706814
Transform:
  m_ObjectHideFlags: 0
  m_CorrespondingSourceObject: {fileID: 0}
  m_PrefabInstance: {fileID: 0}
  m_PrefabAsset: {fileID: 0}
  m_GameObject: {fileID: 1019050698215654}
  m_LocalRotation: {x: -0.6755902, y: -0.00027001617, z: 0.7372773, w: -0.00029261538}
  m_LocalPosition: {x: -0.103663824, y: -0.07041548, z: 0.09481041}
  m_LocalScale: {x: 1.0000001, y: 1, z: 1}
  m_Children:
  - {fileID: 4144028051147684}
  m_Father: {fileID: 4873853081375766}
  m_RootOrder: 0
  m_LocalEulerAnglesHint: {x: 0, y: 0, z: 0}
--- !u!1 &1046832304308360
GameObject:
  m_ObjectHideFlags: 0
  m_CorrespondingSourceObject: {fileID: 0}
  m_PrefabInstance: {fileID: 0}
  m_PrefabAsset: {fileID: 0}
  serializedVersion: 6
  m_Component:
  - component: {fileID: 4728757241758258}
  m_Layer: 0
  m_Name: Bip001 L Foot
  m_TagString: Untagged
  m_Icon: {fileID: 0}
  m_NavMeshLayer: 0
  m_StaticEditorFlags: 0
  m_IsActive: 1
--- !u!4 &4728757241758258
Transform:
  m_ObjectHideFlags: 0
  m_CorrespondingSourceObject: {fileID: 0}
  m_PrefabInstance: {fileID: 0}
  m_PrefabAsset: {fileID: 0}
  m_GameObject: {fileID: 1046832304308360}
  m_LocalRotation: {x: -0.038456917, y: 0.047045212, z: -0.09368543, w: 0.9937459}
  m_LocalPosition: {x: -0.4160843, y: 0.000000006055832, z: 0}
  m_LocalScale: {x: 0.99999994, y: 0.9999999, z: 0.99999994}
  m_Children:
  - {fileID: 4450062321121254}
  m_Father: {fileID: 4127722078509466}
  m_RootOrder: 0
  m_LocalEulerAnglesHint: {x: 0, y: 0, z: 0}
--- !u!1 &1058077902116294
GameObject:
  m_ObjectHideFlags: 0
  m_CorrespondingSourceObject: {fileID: 0}
  m_PrefabInstance: {fileID: 0}
  m_PrefabAsset: {fileID: 0}
  serializedVersion: 6
  m_Component:
  - component: {fileID: 4896150713861852}
  m_Layer: 0
  m_Name: Bip001 R Finger41
  m_TagString: Untagged
  m_Icon: {fileID: 0}
  m_NavMeshLayer: 0
  m_StaticEditorFlags: 0
  m_IsActive: 1
--- !u!4 &4896150713861852
Transform:
  m_ObjectHideFlags: 0
  m_CorrespondingSourceObject: {fileID: 0}
  m_PrefabInstance: {fileID: 0}
  m_PrefabAsset: {fileID: 0}
  m_GameObject: {fileID: 1058077902116294}
  m_LocalRotation: {x: -0.0000000038265773, y: -0.0000000036211705, z: -0.027569205, w: 0.9996199}
  m_LocalPosition: {x: -0.036124248, y: -0.00000009689331, z: -0.000000012111664}
  m_LocalScale: {x: 1.0000001, y: 1.0000001, z: 1.0000001}
  m_Children:
  - {fileID: 4188281482600696}
  m_Father: {fileID: 4304428951930298}
  m_RootOrder: 0
  m_LocalEulerAnglesHint: {x: 0, y: 0, z: 0}
--- !u!1 &1100822083006992
GameObject:
  m_ObjectHideFlags: 0
  m_CorrespondingSourceObject: {fileID: 0}
  m_PrefabInstance: {fileID: 0}
  m_PrefabAsset: {fileID: 0}
  serializedVersion: 6
  m_Component:
  - component: {fileID: 4687562018143992}
  m_Layer: 0
  m_Name: LowerEyeLids
  m_TagString: Untagged
  m_Icon: {fileID: 0}
  m_NavMeshLayer: 0
  m_StaticEditorFlags: 0
  m_IsActive: 1
--- !u!4 &4687562018143992
Transform:
  m_ObjectHideFlags: 0
  m_CorrespondingSourceObject: {fileID: 0}
  m_PrefabInstance: {fileID: 0}
  m_PrefabAsset: {fileID: 0}
  m_GameObject: {fileID: 1100822083006992}
  m_LocalRotation: {x: 0.7071074, y: -0.0000009890484, z: -0.0000007586423, w: 0.7071062}
  m_LocalPosition: {x: -0.06487511, y: 0.09807767, z: 0.000215303}
  m_LocalScale: {x: -1, y: -1.0000002, z: -1}
  m_Children: []
  m_Father: {fileID: 4584882897708256}
  m_RootOrder: 1
  m_LocalEulerAnglesHint: {x: 0, y: 0, z: 0}
--- !u!1 &1111822815315162
GameObject:
  m_ObjectHideFlags: 0
  m_CorrespondingSourceObject: {fileID: 0}
  m_PrefabInstance: {fileID: 0}
  m_PrefabAsset: {fileID: 0}
  serializedVersion: 6
  m_Component:
  - component: {fileID: 4725544116055740}
  m_Layer: 0
  m_Name: Bip001 Spine
  m_TagString: Untagged
  m_Icon: {fileID: 0}
  m_NavMeshLayer: 0
  m_StaticEditorFlags: 0
  m_IsActive: 1
--- !u!4 &4725544116055740
Transform:
  m_ObjectHideFlags: 0
  m_CorrespondingSourceObject: {fileID: 0}
  m_PrefabInstance: {fileID: 0}
  m_PrefabAsset: {fileID: 0}
  m_GameObject: {fileID: 1111822815315162}
  m_LocalRotation: {x: -0.000002080476, y: 0.000000693676, z: -0.000398159, w: 0.99999994}
  m_LocalPosition: {x: -0.09570675, y: -0.009212958, z: 0.00000017079338}
  m_LocalScale: {x: 1, y: 0.99999994, z: 0.99999994}
  m_Children:
  - {fileID: 4009655382119326}
  m_Father: {fileID: 4522060794589592}
  m_RootOrder: 2
  m_LocalEulerAnglesHint: {x: 0, y: 0, z: 0}
--- !u!1 &1134285280316392
GameObject:
  m_ObjectHideFlags: 0
  m_CorrespondingSourceObject: {fileID: 0}
  m_PrefabInstance: {fileID: 0}
  m_PrefabAsset: {fileID: 0}
  serializedVersion: 6
  m_Component:
  - component: {fileID: 4804556071462598}
  m_Layer: 0
  m_Name: Bip001 L Finger12
  m_TagString: Untagged
  m_Icon: {fileID: 0}
  m_NavMeshLayer: 0
  m_StaticEditorFlags: 0
  m_IsActive: 1
--- !u!4 &4804556071462598
Transform:
  m_ObjectHideFlags: 0
  m_CorrespondingSourceObject: {fileID: 0}
  m_PrefabInstance: {fileID: 0}
  m_PrefabAsset: {fileID: 0}
  m_GameObject: {fileID: 1134285280316392}
  m_LocalRotation: {x: -0.0000000074503563, y: 5.7683133e-11, z: -0.0077421, w: 0.99997}
  m_LocalPosition: {x: -0.03873596, y: 0, z: 0.000000012111664}
  m_LocalScale: {x: 1.0000001, y: 1.0000001, z: 1.0000001}
  m_Children: []
  m_Father: {fileID: 4756905921220306}
  m_RootOrder: 0
  m_LocalEulerAnglesHint: {x: 0, y: 0, z: 0}
--- !u!1 &1143562571160132
GameObject:
  m_ObjectHideFlags: 0
  m_CorrespondingSourceObject: {fileID: 0}
  m_PrefabInstance: {fileID: 0}
  m_PrefabAsset: {fileID: 0}
  serializedVersion: 6
  m_Component:
  - component: {fileID: 4522060794589592}
  m_Layer: 0
  m_Name: Bip001 Pelvis
  m_TagString: Untagged
  m_Icon: {fileID: 0}
  m_NavMeshLayer: 0
  m_StaticEditorFlags: 0
  m_IsActive: 1
--- !u!4 &4522060794589592
Transform:
  m_ObjectHideFlags: 0
  m_CorrespondingSourceObject: {fileID: 0}
  m_PrefabInstance: {fileID: 0}
  m_PrefabAsset: {fileID: 0}
  m_GameObject: {fileID: 1143562571160132}
  m_LocalRotation: {x: -0.49999964, y: 0.50000036, z: 0.49999964, w: 0.50000036}
  m_LocalPosition: {x: -0, y: 0, z: 0}
  m_LocalScale: {x: 1, y: 0.99999994, z: 0.99999994}
  m_Children:
  - {fileID: 4763141242093998}
  - {fileID: 4957012867477850}
  - {fileID: 4725544116055740}
  m_Father: {fileID: 4079176286837876}
  m_RootOrder: 0
  m_LocalEulerAnglesHint: {x: 0, y: 0, z: 0}
--- !u!1 &1157516481962004
GameObject:
  m_ObjectHideFlags: 0
  m_CorrespondingSourceObject: {fileID: 0}
  m_PrefabInstance: {fileID: 0}
  m_PrefabAsset: {fileID: 0}
  serializedVersion: 6
  m_Component:
  - component: {fileID: 4743584643785480}
  m_Layer: 0
  m_Name: Bip001 L Finger42
  m_TagString: Untagged
  m_Icon: {fileID: 0}
  m_NavMeshLayer: 0
  m_StaticEditorFlags: 0
  m_IsActive: 1
--- !u!4 &4743584643785480
Transform:
  m_ObjectHideFlags: 0
  m_CorrespondingSourceObject: {fileID: 0}
  m_PrefabInstance: {fileID: 0}
  m_PrefabAsset: {fileID: 0}
  m_GameObject: {fileID: 1157516481962004}
  m_LocalRotation: {x: 0.0000000037252896, y: 2.8222988e-12, z: 0.000757605, w: 0.9999997}
  m_LocalPosition: {x: -0.03612449, y: 0.00000009689331, z: -0.000000012111664}
  m_LocalScale: {x: 1.0000001, y: 0.9999999, z: 1.0000001}
  m_Children: []
  m_Father: {fileID: 4570745193876858}
  m_RootOrder: 0
  m_LocalEulerAnglesHint: {x: 0, y: 0, z: 0}
--- !u!1 &1166531977800308
GameObject:
  m_ObjectHideFlags: 0
  m_CorrespondingSourceObject: {fileID: 0}
  m_PrefabInstance: {fileID: 0}
  m_PrefabAsset: {fileID: 0}
  serializedVersion: 6
  m_Component:
  - component: {fileID: 4881076124143744}
  m_Layer: 0
  m_Name: Bip001 L Forearm
  m_TagString: Untagged
  m_Icon: {fileID: 0}
  m_NavMeshLayer: 0
  m_StaticEditorFlags: 0
  m_IsActive: 1
--- !u!4 &4881076124143744
Transform:
  m_ObjectHideFlags: 0
  m_CorrespondingSourceObject: {fileID: 0}
  m_PrefabInstance: {fileID: 0}
  m_PrefabAsset: {fileID: 0}
  m_GameObject: {fileID: 1166531977800308}
  m_LocalRotation: {x: 0.000000007344935, y: 0.000000001250229, z: 0.16780291, w: 0.9858206}
  m_LocalPosition: {x: -0.2496506, y: 0.000000006055832, z: -0.00000009689331}
  m_LocalScale: {x: 1, y: 1.0000001, z: 1}
  m_Children:
  - {fileID: 4348689602496872}
  m_Father: {fileID: 4144028051147684}
  m_RootOrder: 0
  m_LocalEulerAnglesHint: {x: 0, y: 0, z: 0}
--- !u!1 &1185729425792816
GameObject:
  m_ObjectHideFlags: 0
  m_CorrespondingSourceObject: {fileID: 0}
  m_PrefabInstance: {fileID: 0}
  m_PrefabAsset: {fileID: 0}
  serializedVersion: 6
  m_Component:
  - component: {fileID: 4132896889056134}
  m_Layer: 0
  m_Name: Bip001 R Calf
  m_TagString: Untagged
  m_Icon: {fileID: 0}
  m_NavMeshLayer: 0
  m_StaticEditorFlags: 0
  m_IsActive: 1
--- !u!4 &4132896889056134
Transform:
  m_ObjectHideFlags: 0
  m_CorrespondingSourceObject: {fileID: 0}
  m_PrefabInstance: {fileID: 0}
  m_PrefabAsset: {fileID: 0}
  m_GameObject: {fileID: 1185729425792816}
  m_LocalRotation: {x: -0.0000000037078776, y: -3.5976036e-10, z: 0.09657245, w: 0.995326}
  m_LocalPosition: {x: -0.41608423, y: 0, z: -0.000000012111664}
  m_LocalScale: {x: 1, y: 1.0000001, z: 1.0000001}
  m_Children:
  - {fileID: 4489731251944100}
  m_Father: {fileID: 4957012867477850}
  m_RootOrder: 0
  m_LocalEulerAnglesHint: {x: 0, y: 0, z: 0}
--- !u!1 &1189659794241838
GameObject:
  m_ObjectHideFlags: 0
  m_CorrespondingSourceObject: {fileID: 0}
  m_PrefabInstance: {fileID: 0}
  m_PrefabAsset: {fileID: 0}
  serializedVersion: 6
  m_Component:
  - component: {fileID: 4835960399773616}
  - component: {fileID: 137276563836231694}
  m_Layer: 0
  m_Name: Char
  m_TagString: Untagged
  m_Icon: {fileID: 0}
  m_NavMeshLayer: 0
  m_StaticEditorFlags: 0
  m_IsActive: 1
--- !u!4 &4835960399773616
Transform:
  m_ObjectHideFlags: 0
  m_CorrespondingSourceObject: {fileID: 0}
  m_PrefabInstance: {fileID: 0}
  m_PrefabAsset: {fileID: 0}
  m_GameObject: {fileID: 1189659794241838}
  m_LocalRotation: {x: 0.000000021855694, y: 0, z: -0, w: 1}
  m_LocalPosition: {x: -0, y: 0, z: 1.2570987e-10}
  m_LocalScale: {x: 1, y: 1, z: 1}
  m_Children: []
  m_Father: {fileID: 4409424734220706}
  m_RootOrder: 1
  m_LocalEulerAnglesHint: {x: 0, y: 0, z: 0}
--- !u!137 &137276563836231694
SkinnedMeshRenderer:
  m_ObjectHideFlags: 0
  m_CorrespondingSourceObject: {fileID: 0}
  m_PrefabInstance: {fileID: 0}
  m_PrefabAsset: {fileID: 0}
  m_GameObject: {fileID: 1189659794241838}
  m_Enabled: 1
  m_CastShadows: 1
  m_ReceiveShadows: 1
  m_DynamicOccludee: 1
  m_MotionVectors: 1
  m_LightProbeUsage: 1
  m_ReflectionProbeUsage: 1
  m_RayTracingMode: 3
  m_RayTraceProcedural: 0
  m_RenderingLayerMask: 1
  m_RendererPriority: 0
  m_Materials:
  - {fileID: 2100000, guid: 895ec231f7e0d224694f1960837a23ba, type: 2}
  - {fileID: 2100000, guid: 2017af115fb3a3c4da8b99d2e97c8a71, type: 2}
  m_StaticBatchInfo:
    firstSubMesh: 0
    subMeshCount: 0
  m_StaticBatchRoot: {fileID: 0}
  m_ProbeAnchor: {fileID: 0}
  m_LightProbeVolumeOverride: {fileID: 0}
  m_ScaleInLightmap: 1
  m_ReceiveGI: 1
  m_PreserveUVs: 0
  m_IgnoreNormalsForChartDetection: 0
  m_ImportantGI: 0
  m_StitchLightmapSeams: 0
  m_SelectedEditorRenderState: 3
  m_MinimumChartSize: 4
  m_AutoUVMaxDistance: 0.5
  m_AutoUVMaxAngle: 89
  m_LightmapParameters: {fileID: 0}
  m_SortingLayerID: 0
  m_SortingLayer: 0
  m_SortingOrder: 0
  serializedVersion: 2
  m_Quality: 0
  m_UpdateWhenOffscreen: 0
  m_SkinnedMotionVectors: 1
  m_Mesh: {fileID: 4300000, guid: 68ff77d4e131db34586dc6f268e92dca, type: 3}
  m_Bones:
  - {fileID: 4127722078509466}
  - {fileID: 4763141242093998}
  - {fileID: 4132896889056134}
  - {fileID: 4957012867477850}
  - {fileID: 4522060794589592}
  - {fileID: 4725544116055740}
  - {fileID: 4009655382119326}
  - {fileID: 4728757241758258}
  - {fileID: 4489731251944100}
  - {fileID: 4450062321121254}
  - {fileID: 4023910487340122}
  - {fileID: 4023716153117668}
  - {fileID: 4403389651020872}
  - {fileID: 4873853081375766}
  - {fileID: 4363268514706814}
  - {fileID: 4144028051147684}
  - {fileID: 4584882897708256}
  - {fileID: 4096574857446700}
  - {fileID: 4574805179016260}
  - {fileID: 4923721964616182}
  - {fileID: 4687562018143992}
  - {fileID: 4866004931364170}
  - {fileID: 4977213713172678}
  - {fileID: 4813707866243098}
  - {fileID: 4484222620257646}
  - {fileID: 4218021547317652}
  - {fileID: 4304428951930298}
  - {fileID: 4896150713861852}
  - {fileID: 4719486162883426}
  - {fileID: 4617198424202698}
  - {fileID: 4188281482600696}
  - {fileID: 4298212373918010}
  - {fileID: 4514969796905218}
  - {fileID: 4721843633339916}
  - {fileID: 4920664381110928}
  - {fileID: 4762631487585482}
  - {fileID: 4099500948406228}
  - {fileID: 4153165670158978}
  - {fileID: 4601998887011780}
  - {fileID: 4267279902995388}
  - {fileID: 4084736474625668}
  - {fileID: 4881076124143744}
  - {fileID: 4348689602496872}
  - {fileID: 4833943245782522}
  - {fileID: 4570745193876858}
  - {fileID: 4663481012804192}
  - {fileID: 4965407974438894}
  - {fileID: 4743584643785480}
  - {fileID: 4960129061582474}
  - {fileID: 4833993118167026}
  - {fileID: 4230673977342550}
  - {fileID: 4520170098818706}
  - {fileID: 4004783150052384}
  - {fileID: 4223286497683150}
  - {fileID: 4756905921220306}
  - {fileID: 4323172529085320}
  - {fileID: 4804556071462598}
  - {fileID: 4602368850699402}
  m_BlendShapeWeights: []
  m_RootBone: {fileID: 4522060794589592}
  m_AABB:
    m_Center: {x: 0.03836316, y: -0.0013780892, z: 0.0009294152}
    m_Extent: {x: 0.93301564, y: 0.23862538, z: 0.8639077}
  m_DirtyAABB: 0
--- !u!1 &1198308523250526
GameObject:
  m_ObjectHideFlags: 0
  m_CorrespondingSourceObject: {fileID: 0}
  m_PrefabInstance: {fileID: 0}
  m_PrefabAsset: {fileID: 0}
  serializedVersion: 6
  m_Component:
  - component: {fileID: 4023716153117668}
  m_Layer: 0
  m_Name: Bip001 R Clavicle
  m_TagString: Untagged
  m_Icon: {fileID: 0}
  m_NavMeshLayer: 0
  m_StaticEditorFlags: 0
  m_IsActive: 1
--- !u!4 &4023716153117668
Transform:
  m_ObjectHideFlags: 0
  m_CorrespondingSourceObject: {fileID: 0}
  m_PrefabInstance: {fileID: 0}
  m_PrefabAsset: {fileID: 0}
  m_GameObject: {fileID: 1198308523250526}
  m_LocalRotation: {x: 0.6755902, y: 0.00026797128, z: 0.7372773, w: -0.00029448923}
  m_LocalPosition: {x: -0.103663824, y: -0.07041497, z: -0.09481081}
  m_LocalScale: {x: 1.0000001, y: 1, z: 1}
  m_Children:
  - {fileID: 4403389651020872}
  m_Father: {fileID: 4873853081375766}
  m_RootOrder: 2
  m_LocalEulerAnglesHint: {x: 0, y: 0, z: 0}
--- !u!1 &1200527616903910
GameObject:
  m_ObjectHideFlags: 0
  m_CorrespondingSourceObject: {fileID: 0}
  m_PrefabInstance: {fileID: 0}
  m_PrefabAsset: {fileID: 0}
  serializedVersion: 6
  m_Component:
  - component: {fileID: 4079176286837876}
  m_Layer: 0
  m_Name: Bip001
  m_TagString: Untagged
  m_Icon: {fileID: 0}
  m_NavMeshLayer: 0
  m_StaticEditorFlags: 0
  m_IsActive: 1
--- !u!4 &4079176286837876
Transform:
  m_ObjectHideFlags: 0
  m_CorrespondingSourceObject: {fileID: 0}
  m_PrefabInstance: {fileID: 0}
  m_PrefabAsset: {fileID: 0}
  m_GameObject: {fileID: 1200527616903910}
  m_LocalRotation: {x: -0.50000036, y: 0.49999964, z: 0.49999964, w: 0.50000036}
  m_LocalPosition: {x: 0.0009293794, y: 0.95273894, z: 0.05104802}
  m_LocalScale: {x: 0.99999994, y: 0.99999994, z: 1}
  m_Children:
  - {fileID: 4522060794589592}
  m_Father: {fileID: 4409424734220706}
  m_RootOrder: 0
  m_LocalEulerAnglesHint: {x: 0, y: 0, z: 0}
--- !u!1 &1220999133393146
GameObject:
  m_ObjectHideFlags: 0
  m_CorrespondingSourceObject: {fileID: 0}
  m_PrefabInstance: {fileID: 0}
  m_PrefabAsset: {fileID: 0}
  serializedVersion: 6
  m_Component:
  - component: {fileID: 4127722078509466}
  m_Layer: 0
  m_Name: Bip001 L Calf
  m_TagString: Untagged
  m_Icon: {fileID: 0}
  m_NavMeshLayer: 0
  m_StaticEditorFlags: 0
  m_IsActive: 1
--- !u!4 &4127722078509466
Transform:
  m_ObjectHideFlags: 0
  m_CorrespondingSourceObject: {fileID: 0}
  m_PrefabInstance: {fileID: 0}
  m_PrefabAsset: {fileID: 0}
  m_GameObject: {fileID: 1220999133393146}
  m_LocalRotation: {x: 0.0000000014941783, y: 0.000000003887758, z: 0.09657246, w: 0.995326}
  m_LocalPosition: {x: -0.4160842, y: -0.000000006055832, z: 0}
  m_LocalScale: {x: 1, y: 1.0000001, z: 1}
  m_Children:
  - {fileID: 4728757241758258}
  m_Father: {fileID: 4763141242093998}
  m_RootOrder: 0
  m_LocalEulerAnglesHint: {x: 0, y: 0, z: 0}
--- !u!1 &1223524141760356
GameObject:
  m_ObjectHideFlags: 0
  m_CorrespondingSourceObject: {fileID: 0}
  m_PrefabInstance: {fileID: 0}
  m_PrefabAsset: {fileID: 0}
  serializedVersion: 6
  m_Component:
  - component: {fileID: 4570745193876858}
  m_Layer: 0
  m_Name: Bip001 L Finger41
  m_TagString: Untagged
  m_Icon: {fileID: 0}
  m_NavMeshLayer: 0
  m_StaticEditorFlags: 0
  m_IsActive: 1
--- !u!4 &4570745193876858
Transform:
  m_ObjectHideFlags: 0
  m_CorrespondingSourceObject: {fileID: 0}
  m_PrefabInstance: {fileID: 0}
  m_PrefabAsset: {fileID: 0}
  m_GameObject: {fileID: 1223524141760356}
  m_LocalRotation: {x: 0.0000000037238743, y: -1.0270332e-10, z: -0.02756921, w: 0.9996199}
  m_LocalPosition: {x: -0.036124296, y: -0.00000009689331, z: 0.000000012111664}
  m_LocalScale: {x: 0.9999999, y: 0.99999994, z: 0.99999994}
  m_Children:
  - {fileID: 4743584643785480}
  m_Father: {fileID: 4833943245782522}
  m_RootOrder: 0
  m_LocalEulerAnglesHint: {x: 0, y: 0, z: 0}
--- !u!1 &1238248835203410
GameObject:
  m_ObjectHideFlags: 0
  m_CorrespondingSourceObject: {fileID: 0}
  m_PrefabInstance: {fileID: 0}
  m_PrefabAsset: {fileID: 0}
  serializedVersion: 6
  m_Component:
  - component: {fileID: 4514969796905218}
  m_Layer: 0
  m_Name: Bip001 R Finger0
  m_TagString: Untagged
  m_Icon: {fileID: 0}
  m_NavMeshLayer: 0
  m_StaticEditorFlags: 0
  m_IsActive: 1
--- !u!4 &4514969796905218
Transform:
  m_ObjectHideFlags: 0
  m_CorrespondingSourceObject: {fileID: 0}
  m_PrefabInstance: {fileID: 0}
  m_PrefabAsset: {fileID: 0}
  m_GameObject: {fileID: 1238248835203410}
  m_LocalRotation: {x: 0.8311738, y: -0.20255886, z: -0.13568625, w: -0.49970925}
  m_LocalPosition: {x: -0.05354576, y: 0.044699695, z: 0.059425235}
  m_LocalScale: {x: 1.0000001, y: 1, z: 1}
  m_Children:
  - {fileID: 4099500948406228}
  m_Father: {fileID: 4218021547317652}
  m_RootOrder: 0
  m_LocalEulerAnglesHint: {x: 0, y: 0, z: 0}
--- !u!1 &1244244180747002
GameObject:
  m_ObjectHideFlags: 0
  m_CorrespondingSourceObject: {fileID: 0}
  m_PrefabInstance: {fileID: 0}
  m_PrefabAsset: {fileID: 0}
  serializedVersion: 6
  m_Component:
  - component: {fileID: 4153165670158978}
  m_Layer: 0
  m_Name: Bip001 R Finger11
  m_TagString: Untagged
  m_Icon: {fileID: 0}
  m_NavMeshLayer: 0
  m_StaticEditorFlags: 0
  m_IsActive: 1
--- !u!4 &4153165670158978
Transform:
  m_ObjectHideFlags: 0
  m_CorrespondingSourceObject: {fileID: 0}
  m_PrefabInstance: {fileID: 0}
  m_PrefabAsset: {fileID: 0}
  m_GameObject: {fileID: 1244244180747002}
  m_LocalRotation: {x: 0.00000002235174, y: -8.900547e-12, z: -0.00039820376, w: 0.99999994}
  m_LocalPosition: {x: -0.03873591, y: 0, z: -0.000000012111664}
  m_LocalScale: {x: 1, y: 1, z: 1}
  m_Children:
  - {fileID: 4267279902995388}
  m_Father: {fileID: 4762631487585482}
  m_RootOrder: 0
  m_LocalEulerAnglesHint: {x: 0, y: 0, z: 0}
--- !u!1 &1250286115323852
GameObject:
  m_ObjectHideFlags: 0
  m_CorrespondingSourceObject: {fileID: 0}
  m_PrefabInstance: {fileID: 0}
  m_PrefabAsset: {fileID: 0}
  serializedVersion: 6
  m_Component:
  - component: {fileID: 4304428951930298}
  m_Layer: 0
  m_Name: Bip001 R Finger4
  m_TagString: Untagged
  m_Icon: {fileID: 0}
  m_NavMeshLayer: 0
  m_StaticEditorFlags: 0
  m_IsActive: 1
--- !u!4 &4304428951930298
Transform:
  m_ObjectHideFlags: 0
  m_CorrespondingSourceObject: {fileID: 0}
  m_PrefabInstance: {fileID: 0}
  m_PrefabAsset: {fileID: 0}
  m_GameObject: {fileID: 1250286115323852}
  m_LocalRotation: {x: -0.0270663, y: -0.17146966, z: 0.015432029, w: 0.9846966}
  m_LocalPosition: {x: -0.13244124, y: 0.005588903, z: -0.05876124}
  m_LocalScale: {x: 1.0000001, y: 0.99999994, z: 1}
  m_Children:
  - {fileID: 4896150713861852}
  m_Father: {fileID: 4218021547317652}
  m_RootOrder: 4
  m_LocalEulerAnglesHint: {x: 0, y: 0, z: 0}
--- !u!1 &1258066786275980
GameObject:
  m_ObjectHideFlags: 0
  m_CorrespondingSourceObject: {fileID: 0}
  m_PrefabInstance: {fileID: 0}
  m_PrefabAsset: {fileID: 0}
  serializedVersion: 6
  m_Component:
  - component: {fileID: 4920664381110928}
  m_Layer: 0
  m_Name: Bip001 R Finger21
  m_TagString: Untagged
  m_Icon: {fileID: 0}
  m_NavMeshLayer: 0
  m_StaticEditorFlags: 0
  m_IsActive: 1
--- !u!4 &4920664381110928
Transform:
  m_ObjectHideFlags: 0
  m_CorrespondingSourceObject: {fileID: 0}
  m_PrefabInstance: {fileID: 0}
  m_PrefabAsset: {fileID: 0}
  m_GameObject: {fileID: 1258066786275980}
  m_LocalRotation: {x: 0, y: 0, z: -0.011198417, w: 0.9999373}
  m_LocalPosition: {x: -0.04004746, y: 0, z: -0.000000012111664}
  m_LocalScale: {x: 1.0000001, y: 0.99999994, z: 1}
  m_Children:
  - {fileID: 4601998887011780}
  m_Father: {fileID: 4721843633339916}
  m_RootOrder: 0
  m_LocalEulerAnglesHint: {x: 0, y: 0, z: 0}
--- !u!1 &1264084790275498
GameObject:
  m_ObjectHideFlags: 0
  m_CorrespondingSourceObject: {fileID: 0}
  m_PrefabInstance: {fileID: 0}
  m_PrefabAsset: {fileID: 0}
  serializedVersion: 6
  m_Component:
  - component: {fileID: 4601998887011780}
  m_Layer: 0
  m_Name: Bip001 R Finger22
  m_TagString: Untagged
  m_Icon: {fileID: 0}
  m_NavMeshLayer: 0
  m_StaticEditorFlags: 0
  m_IsActive: 1
--- !u!4 &4601998887011780
Transform:
  m_ObjectHideFlags: 0
  m_CorrespondingSourceObject: {fileID: 0}
  m_PrefabInstance: {fileID: 0}
  m_PrefabAsset: {fileID: 0}
  m_GameObject: {fileID: 1264084790275498}
  m_LocalRotation: {x: 4.318876e-11, y: -0.0000000037250407, z: 0.011593393, w: 0.9999328}
  m_LocalPosition: {x: -0.04004741, y: 0, z: 0.000000012111664}
  m_LocalScale: {x: 0.9999999, y: 1, z: 1}
  m_Children: []
  m_Father: {fileID: 4920664381110928}
  m_RootOrder: 0
  m_LocalEulerAnglesHint: {x: 0, y: 0, z: 0}
--- !u!1 &1268116587756374
GameObject:
  m_ObjectHideFlags: 0
  m_CorrespondingSourceObject: {fileID: 0}
  m_PrefabInstance: {fileID: 0}
  m_PrefabAsset: {fileID: 0}
  serializedVersion: 6
  m_Component:
  - component: {fileID: 4574805179016260}
  m_Layer: 0
  m_Name: Brow
  m_TagString: Untagged
  m_Icon: {fileID: 0}
  m_NavMeshLayer: 0
  m_StaticEditorFlags: 0
  m_IsActive: 1
--- !u!4 &4574805179016260
Transform:
  m_ObjectHideFlags: 0
  m_CorrespondingSourceObject: {fileID: 0}
  m_PrefabInstance: {fileID: 0}
  m_PrefabAsset: {fileID: 0}
  m_GameObject: {fileID: 1268116587756374}
  m_LocalRotation: {x: -0.707106, y: 0.000000526835, z: -0.0000005268361, w: 0.70710754}
  m_LocalPosition: {x: -0.087573335, y: 0.12154786, z: 0.0015773745}
  m_LocalScale: {x: 1.0000007, y: 0.9999995, z: 1.0000001}
  m_Children: []
  m_Father: {fileID: 4584882897708256}
  m_RootOrder: 0
  m_LocalEulerAnglesHint: {x: 0, y: 0, z: 0}
--- !u!1 &1268192679130974
GameObject:
  m_ObjectHideFlags: 0
  m_CorrespondingSourceObject: {fileID: 0}
  m_PrefabInstance: {fileID: 0}
  m_PrefabAsset: {fileID: 0}
  serializedVersion: 6
  m_Component:
  - component: {fileID: 4223286497683150}
  m_Layer: 0
  m_Name: Bip001 L Finger01
  m_TagString: Untagged
  m_Icon: {fileID: 0}
  m_NavMeshLayer: 0
  m_StaticEditorFlags: 0
  m_IsActive: 1
--- !u!4 &4223286497683150
Transform:
  m_ObjectHideFlags: 0
  m_CorrespondingSourceObject: {fileID: 0}
  m_PrefabInstance: {fileID: 0}
  m_PrefabAsset: {fileID: 0}
  m_GameObject: {fileID: 1268192679130974}
  m_LocalRotation: {x: -0.000000027305711, y: 0.00000001760618, z: -0.096081026, w: 0.99537355}
  m_LocalPosition: {x: -0.044411413, y: -0.000000048446655, z: 0}
  m_LocalScale: {x: 0.9999999, y: 1, z: 1}
  m_Children:
  - {fileID: 4602368850699402}
  m_Father: {fileID: 4833993118167026}
  m_RootOrder: 0
  m_LocalEulerAnglesHint: {x: 0, y: 0, z: 0}
--- !u!1 &1281891137776534
GameObject:
  m_ObjectHideFlags: 0
  m_CorrespondingSourceObject: {fileID: 0}
  m_PrefabInstance: {fileID: 0}
  m_PrefabAsset: {fileID: 0}
  serializedVersion: 6
  m_Component:
  - component: {fileID: 4923721964616182}
  m_Layer: 0
  m_Name: UpperEyeLids
  m_TagString: Untagged
  m_Icon: {fileID: 0}
  m_NavMeshLayer: 0
  m_StaticEditorFlags: 0
  m_IsActive: 1
--- !u!4 &4923721964616182
Transform:
  m_ObjectHideFlags: 0
  m_CorrespondingSourceObject: {fileID: 0}
  m_PrefabInstance: {fileID: 0}
  m_PrefabAsset: {fileID: 0}
  m_GameObject: {fileID: 1281891137776534}
  m_LocalRotation: {x: -0.707106, y: 0.000000526835, z: -0.0000005268361, w: 0.70710754}
  m_LocalPosition: {x: -0.07895254, y: 0.10155223, z: 0.00021530295}
  m_LocalScale: {x: 1.0000007, y: 0.9999995, z: 1.0000001}
  m_Children: []
  m_Father: {fileID: 4584882897708256}
  m_RootOrder: 3
  m_LocalEulerAnglesHint: {x: 0, y: 0, z: 0}
--- !u!1 &1310391689852950
GameObject:
  m_ObjectHideFlags: 0
  m_CorrespondingSourceObject: {fileID: 0}
  m_PrefabInstance: {fileID: 0}
  m_PrefabAsset: {fileID: 0}
  serializedVersion: 6
  m_Component:
  - component: {fileID: 4520170098818706}
  m_Layer: 0
  m_Name: Bip001 L Finger21
  m_TagString: Untagged
  m_Icon: {fileID: 0}
  m_NavMeshLayer: 0
  m_StaticEditorFlags: 0
  m_IsActive: 1
--- !u!4 &4520170098818706
Transform:
  m_ObjectHideFlags: 0
  m_CorrespondingSourceObject: {fileID: 0}
  m_PrefabInstance: {fileID: 0}
  m_PrefabAsset: {fileID: 0}
  m_GameObject: {fileID: 1310391689852950}
  m_LocalRotation: {x: -8.3434475e-11, y: -0.0000000074501125, z: -0.0111983875, w: 0.9999373}
  m_LocalPosition: {x: -0.04004746, y: 0, z: -0.000000006055832}
  m_LocalScale: {x: 1.0000001, y: 1.0000001, z: 1.0000001}
  m_Children:
  - {fileID: 4323172529085320}
  m_Father: {fileID: 4230673977342550}
  m_RootOrder: 0
  m_LocalEulerAnglesHint: {x: 0, y: 0, z: 0}
--- !u!1 &1332436193234432
GameObject:
  m_ObjectHideFlags: 0
  m_CorrespondingSourceObject: {fileID: 0}
  m_PrefabInstance: {fileID: 0}
  m_PrefabAsset: {fileID: 0}
  serializedVersion: 6
  m_Component:
  - component: {fileID: 4756905921220306}
  m_Layer: 0
  m_Name: Bip001 L Finger11
  m_TagString: Untagged
  m_Icon: {fileID: 0}
  m_NavMeshLayer: 0
  m_StaticEditorFlags: 0
  m_IsActive: 1
--- !u!4 &4756905921220306
Transform:
  m_ObjectHideFlags: 0
  m_CorrespondingSourceObject: {fileID: 0}
  m_PrefabInstance: {fileID: 0}
  m_PrefabAsset: {fileID: 0}
  m_GameObject: {fileID: 1332436193234432}
  m_LocalRotation: {x: -0.0000000149011585, y: 5.9341408e-12, z: -0.00039823347, w: 0.99999994}
  m_LocalPosition: {x: -0.03873591, y: 0.00000009689331, z: 0}
  m_LocalScale: {x: 1.0000002, y: 1.0000001, z: 1}
  m_Children:
  - {fileID: 4804556071462598}
  m_Father: {fileID: 4004783150052384}
  m_RootOrder: 0
  m_LocalEulerAnglesHint: {x: 0, y: 0, z: 0}
--- !u!1 &1351239026228402
GameObject:
  m_ObjectHideFlags: 0
  m_CorrespondingSourceObject: {fileID: 0}
  m_PrefabInstance: {fileID: 0}
  m_PrefabAsset: {fileID: 0}
  serializedVersion: 6
  m_Component:
  - component: {fileID: 4489731251944100}
  m_Layer: 0
  m_Name: Bip001 R Foot
  m_TagString: Untagged
  m_Icon: {fileID: 0}
  m_NavMeshLayer: 0
  m_StaticEditorFlags: 0
  m_IsActive: 1
--- !u!4 &4489731251944100
Transform:
  m_ObjectHideFlags: 0
  m_CorrespondingSourceObject: {fileID: 0}
  m_PrefabInstance: {fileID: 0}
  m_PrefabAsset: {fileID: 0}
  m_GameObject: {fileID: 1351239026228402}
  m_LocalRotation: {x: 0.038456906, y: -0.047045298, z: -0.093685426, w: 0.9937459}
  m_LocalPosition: {x: -0.41608435, y: -0.000000006055832, z: 0}
  m_LocalScale: {x: 1.0000001, y: 1.0000001, z: 1}
  m_Children:
  - {fileID: 4023910487340122}
  m_Father: {fileID: 4132896889056134}
  m_RootOrder: 0
  m_LocalEulerAnglesHint: {x: 0, y: 0, z: 0}
--- !u!1 &1366338303782838
GameObject:
  m_ObjectHideFlags: 0
  m_CorrespondingSourceObject: {fileID: 0}
  m_PrefabInstance: {fileID: 0}
  m_PrefabAsset: {fileID: 0}
  serializedVersion: 6
  m_Component:
  - component: {fileID: 4144028051147684}
  m_Layer: 0
  m_Name: Bip001 L UpperArm
  m_TagString: Untagged
  m_Icon: {fileID: 0}
  m_NavMeshLayer: 0
  m_StaticEditorFlags: 0
  m_IsActive: 1
--- !u!4 &4144028051147684
Transform:
  m_ObjectHideFlags: 0
  m_CorrespondingSourceObject: {fileID: 0}
  m_PrefabInstance: {fileID: 0}
  m_PrefabAsset: {fileID: 0}
  m_GameObject: {fileID: 1366338303782838}
  m_LocalRotation: {x: 0.006818681, y: -0.29205126, z: -0.02136521, w: 0.9561397}
  m_LocalPosition: {x: -0.1835415, y: 0.000000003027916, z: 0.00000009689331}
  m_LocalScale: {x: 1, y: 1, z: 1}
  m_Children:
  - {fileID: 4881076124143744}
  m_Father: {fileID: 4363268514706814}
  m_RootOrder: 0
  m_LocalEulerAnglesHint: {x: 0, y: 0, z: 0}
--- !u!1 &1386119584503660
GameObject:
  m_ObjectHideFlags: 0
  m_CorrespondingSourceObject: {fileID: 0}
  m_PrefabInstance: {fileID: 0}
  m_PrefabAsset: {fileID: 0}
  serializedVersion: 6
  m_Component:
  - component: {fileID: 4267279902995388}
  m_Layer: 0
  m_Name: Bip001 R Finger12
  m_TagString: Untagged
  m_Icon: {fileID: 0}
  m_NavMeshLayer: 0
  m_StaticEditorFlags: 0
  m_IsActive: 1
--- !u!4 &4267279902995388
Transform:
  m_ObjectHideFlags: 0
  m_CorrespondingSourceObject: {fileID: 0}
  m_PrefabInstance: {fileID: 0}
  m_PrefabAsset: {fileID: 0}
  m_GameObject: {fileID: 1386119584503660}
  m_LocalRotation: {x: 0.00000000750804, y: 0.000000007392674, z: -0.0077421153, w: 0.99997}
  m_LocalPosition: {x: -0.03873591, y: 0, z: 0.000000024223327}
  m_LocalScale: {x: 1, y: 1.0000001, z: 1}
  m_Children: []
  m_Father: {fileID: 4153165670158978}
  m_RootOrder: 0
  m_LocalEulerAnglesHint: {x: 0, y: 0, z: 0}
--- !u!1 &1390320888262690
GameObject:
  m_ObjectHideFlags: 0
  m_CorrespondingSourceObject: {fileID: 0}
  m_PrefabInstance: {fileID: 0}
  m_PrefabAsset: {fileID: 0}
  serializedVersion: 6
  m_Component:
  - component: {fileID: 4873853081375766}
  m_Layer: 0
  m_Name: Bip001 Spine2
  m_TagString: Untagged
  m_Icon: {fileID: 0}
  m_NavMeshLayer: 0
  m_StaticEditorFlags: 0
  m_IsActive: 1
--- !u!4 &4873853081375766
Transform:
  m_ObjectHideFlags: 0
  m_CorrespondingSourceObject: {fileID: 0}
  m_PrefabInstance: {fileID: 0}
  m_PrefabAsset: {fileID: 0}
  m_GameObject: {fileID: 1390320888262690}
  m_LocalRotation: {x: -3.0117673e-14, y: 0, z: -0, w: 1}
  m_LocalPosition: {x: -0.14424255, y: -0.000114854905, z: -2.8386712e-10}
  m_LocalScale: {x: 1, y: 1, z: 1}
  m_Children:
  - {fileID: 4363268514706814}
  - {fileID: 4096574857446700}
  - {fileID: 4023716153117668}
  m_Father: {fileID: 4009655382119326}
  m_RootOrder: 0
  m_LocalEulerAnglesHint: {x: 0, y: 0, z: 0}
--- !u!1 &1396303863833268
GameObject:
  m_ObjectHideFlags: 0
  m_CorrespondingSourceObject: {fileID: 0}
  m_PrefabInstance: {fileID: 0}
  m_PrefabAsset: {fileID: 0}
  serializedVersion: 6
  m_Component:
  - component: {fileID: 4403389651020872}
  m_Layer: 0
  m_Name: Bip001 R UpperArm
  m_TagString: Untagged
  m_Icon: {fileID: 0}
  m_NavMeshLayer: 0
  m_StaticEditorFlags: 0
  m_IsActive: 1
--- !u!4 &4403389651020872
Transform:
  m_ObjectHideFlags: 0
  m_CorrespondingSourceObject: {fileID: 0}
  m_PrefabInstance: {fileID: 0}
  m_PrefabAsset: {fileID: 0}
  m_GameObject: {fileID: 1396303863833268}
  m_LocalRotation: {x: -0.006818681, y: 0.29205126, z: -0.02136521, w: 0.9561397}
  m_LocalPosition: {x: -0.1835415, y: -0.000000003027916, z: -0.00000009689331}
  m_LocalScale: {x: 1, y: 1, z: 1}
  m_Children:
  - {fileID: 4484222620257646}
  m_Father: {fileID: 4023716153117668}
  m_RootOrder: 0
  m_LocalEulerAnglesHint: {x: 0, y: 0, z: 0}
--- !u!1 &1405932943621950
GameObject:
  m_ObjectHideFlags: 0
  m_CorrespondingSourceObject: {fileID: 0}
  m_PrefabInstance: {fileID: 0}
  m_PrefabAsset: {fileID: 0}
  serializedVersion: 6
  m_Component:
  - component: {fileID: 4188281482600696}
  m_Layer: 0
  m_Name: Bip001 R Finger42
  m_TagString: Untagged
  m_Icon: {fileID: 0}
  m_NavMeshLayer: 0
  m_StaticEditorFlags: 0
  m_IsActive: 1
--- !u!4 &4188281482600696
Transform:
  m_ObjectHideFlags: 0
  m_CorrespondingSourceObject: {fileID: 0}
  m_PrefabInstance: {fileID: 0}
  m_PrefabAsset: {fileID: 0}
  m_GameObject: {fileID: 1405932943621950}
  m_LocalRotation: {x: -2.8221874e-12, y: 0.000000003725289, z: 0.0007575752, w: 0.9999997}
  m_LocalPosition: {x: -0.03612444, y: 0.00000019378662, z: 0.000000018167496}
  m_LocalScale: {x: 1.0000001, y: 1.0000001, z: 1.0000001}
  m_Children: []
  m_Father: {fileID: 4896150713861852}
  m_RootOrder: 0
  m_LocalEulerAnglesHint: {x: 0, y: 0, z: 0}
--- !u!1 &1409969223628186
GameObject:
  m_ObjectHideFlags: 0
  m_CorrespondingSourceObject: {fileID: 0}
  m_PrefabInstance: {fileID: 0}
  m_PrefabAsset: {fileID: 0}
  serializedVersion: 6
  m_Component:
  - component: {fileID: 4385281752692834}
  - component: {fileID: 33088226605958072}
  - component: {fileID: 23695862630906714}
  - component: {fileID: 114420759957976592}
  m_Layer: 0
  m_Name: BlobShadow
  m_TagString: Untagged
  m_Icon: {fileID: 0}
  m_NavMeshLayer: 0
  m_StaticEditorFlags: 0
  m_IsActive: 1
--- !u!4 &4385281752692834
Transform:
  m_ObjectHideFlags: 0
  m_CorrespondingSourceObject: {fileID: 0}
  m_PrefabInstance: {fileID: 0}
  m_PrefabAsset: {fileID: 0}
  m_GameObject: {fileID: 1409969223628186}
  m_LocalRotation: {x: 0, y: 0, z: 0, w: 1}
  m_LocalPosition: {x: 0, y: 0, z: 0}
  m_LocalScale: {x: 1, y: 1, z: 1}
  m_Children: []
  m_Father: {fileID: 4061772092445518}
  m_RootOrder: 1
  m_LocalEulerAnglesHint: {x: 0, y: 0, z: 0}
--- !u!33 &33088226605958072
MeshFilter:
  m_ObjectHideFlags: 0
  m_CorrespondingSourceObject: {fileID: 0}
  m_PrefabInstance: {fileID: 0}
  m_PrefabAsset: {fileID: 0}
  m_GameObject: {fileID: 1409969223628186}
  m_Mesh: {fileID: 4300000, guid: 212b140d060f9d44e869f847a688df3a, type: 3}
--- !u!23 &23695862630906714
MeshRenderer:
  m_ObjectHideFlags: 0
  m_CorrespondingSourceObject: {fileID: 0}
  m_PrefabInstance: {fileID: 0}
  m_PrefabAsset: {fileID: 0}
  m_GameObject: {fileID: 1409969223628186}
  m_Enabled: 1
  m_CastShadows: 1
  m_ReceiveShadows: 1
  m_DynamicOccludee: 1
  m_MotionVectors: 1
  m_LightProbeUsage: 1
  m_ReflectionProbeUsage: 1
  m_RayTracingMode: 2
  m_RayTraceProcedural: 0
  m_RenderingLayerMask: 1
  m_RendererPriority: 0
  m_Materials:
  - {fileID: 2100000, guid: 4790ce869f1a72f4e8686d98dd524f39, type: 2}
  m_StaticBatchInfo:
    firstSubMesh: 0
    subMeshCount: 0
  m_StaticBatchRoot: {fileID: 0}
  m_ProbeAnchor: {fileID: 0}
  m_LightProbeVolumeOverride: {fileID: 0}
  m_ScaleInLightmap: 1
  m_ReceiveGI: 1
  m_PreserveUVs: 0
  m_IgnoreNormalsForChartDetection: 0
  m_ImportantGI: 0
  m_StitchLightmapSeams: 0
  m_SelectedEditorRenderState: 3
  m_MinimumChartSize: 4
  m_AutoUVMaxDistance: 0.5
  m_AutoUVMaxAngle: 89
  m_LightmapParameters: {fileID: 0}
  m_SortingLayerID: 0
  m_SortingLayer: 0
  m_SortingOrder: 0
  m_AdditionalVertexStreams: {fileID: 0}
--- !u!114 &114420759957976592
MonoBehaviour:
  m_ObjectHideFlags: 0
  m_CorrespondingSourceObject: {fileID: 0}
  m_PrefabInstance: {fileID: 0}
  m_PrefabAsset: {fileID: 0}
  m_GameObject: {fileID: 1409969223628186}
  m_Enabled: 1
  m_EditorHideFlags: 0
  m_Script: {fileID: 11500000, guid: 28e08a32c1d361e4daa2d27e5fddd9c5, type: 3}
  m_Name: 
  m_EditorClassIdentifier: 
  FollowBone: {fileID: 4522060794589592}
  BlobShadowSize: 1.4
  DistanceScale: 3
  Yoffset: 0.01
  GroundLayerMask:
    serializedVersion: 2
    m_Bits: 2048
  followTerrainRotation: 1
--- !u!1 &1420723317858676
GameObject:
  m_ObjectHideFlags: 0
  m_CorrespondingSourceObject: {fileID: 0}
  m_PrefabInstance: {fileID: 0}
  m_PrefabAsset: {fileID: 0}
  serializedVersion: 6
  m_Component:
  - component: {fileID: 4023910487340122}
  m_Layer: 0
  m_Name: Bip001 R Toe0
  m_TagString: Untagged
  m_Icon: {fileID: 0}
  m_NavMeshLayer: 0
  m_StaticEditorFlags: 0
  m_IsActive: 1
--- !u!4 &4023910487340122
Transform:
  m_ObjectHideFlags: 0
  m_CorrespondingSourceObject: {fileID: 0}
  m_PrefabInstance: {fileID: 0}
  m_PrefabAsset: {fileID: 0}
  m_GameObject: {fileID: 1420723317858676}
  m_LocalRotation: {x: -0.000000015454312, y: 0.000000015454312, z: -0.7071068, w: 0.7071068}
  m_LocalPosition: {x: -0.10116897, y: 0.19018808, z: 0.000000012111664}
  m_LocalScale: {x: 1, y: 1, z: 1}
  m_Children: []
  m_Father: {fileID: 4489731251944100}
  m_RootOrder: 0
  m_LocalEulerAnglesHint: {x: 0, y: 0, z: 0}
--- !u!1 &1443228785723502
GameObject:
  m_ObjectHideFlags: 0
  m_CorrespondingSourceObject: {fileID: 0}
  m_PrefabInstance: {fileID: 0}
  m_PrefabAsset: {fileID: 0}
  serializedVersion: 6
  m_Component:
  - component: {fileID: 4061772092445518}
  - component: {fileID: 54563879313053976}
  - component: {fileID: 136804050622449412}
  - component: {fileID: 114618728623483790}
  - component: {fileID: 114973803696962722}
  - component: {fileID: 114215166796135322}
  - component: {fileID: 114894661200743772}
  m_Layer: 9
  m_Name: Player_Leonardo
  m_TagString: Player
  m_Icon: {fileID: 0}
  m_NavMeshLayer: 0
  m_StaticEditorFlags: 0
  m_IsActive: 1
--- !u!4 &4061772092445518
Transform:
  m_ObjectHideFlags: 0
  m_CorrespondingSourceObject: {fileID: 0}
  m_PrefabInstance: {fileID: 0}
  m_PrefabAsset: {fileID: 0}
  m_GameObject: {fileID: 1443228785723502}
  m_LocalRotation: {x: -0, y: -0, z: -0, w: 1}
  m_LocalPosition: {x: 9.99, y: 0, z: -0.93}
  m_LocalScale: {x: 1, y: 1, z: 1}
  m_Children:
  - {fileID: 4409424734220706}
  - {fileID: 4385281752692834}
  - {fileID: 4864199991471876394}
  m_Father: {fileID: 0}
  m_RootOrder: 0
  m_LocalEulerAnglesHint: {x: 0, y: 0, z: 0}
--- !u!54 &54563879313053976
Rigidbody:
  m_ObjectHideFlags: 0
  m_CorrespondingSourceObject: {fileID: 0}
  m_PrefabInstance: {fileID: 0}
  m_PrefabAsset: {fileID: 0}
  m_GameObject: {fileID: 1443228785723502}
  serializedVersion: 2
  m_Mass: 3
  m_Drag: 0
  m_AngularDrag: 0
  m_UseGravity: 1
  m_IsKinematic: 0
  m_Interpolate: 1
  m_Constraints: 112
  m_CollisionDetection: 0
--- !u!136 &136804050622449412
CapsuleCollider:
  m_ObjectHideFlags: 0
  m_CorrespondingSourceObject: {fileID: 0}
  m_PrefabInstance: {fileID: 0}
  m_PrefabAsset: {fileID: 0}
  m_GameObject: {fileID: 1443228785723502}
  m_Material: {fileID: 13400000, guid: c3496fc1bd7a3d140810de56cc293ce6, type: 2}
  m_IsTrigger: 0
  m_Enabled: 1
  m_Radius: 0.3
  m_Height: 1.8
  m_Direction: 1
  m_Center: {x: 0, y: 0.85, z: 0}
--- !u!114 &114618728623483790
MonoBehaviour:
  m_ObjectHideFlags: 0
  m_CorrespondingSourceObject: {fileID: 0}
  m_PrefabInstance: {fileID: 0}
  m_PrefabAsset: {fileID: 0}
  m_GameObject: {fileID: 1443228785723502}
  m_Enabled: 1
  m_EditorHideFlags: 0
  m_Script: {fileID: 11500000, guid: b992969939f9e1c4992a48257d73fd16, type: 3}
  m_Name: 
  m_EditorClassIdentifier: 
  currentState: 0
--- !u!114 &114973803696962722
MonoBehaviour:
  m_ObjectHideFlags: 0
  m_CorrespondingSourceObject: {fileID: 0}
  m_PrefabInstance: {fileID: 0}
  m_PrefabAsset: {fileID: 0}
  m_GameObject: {fileID: 1443228785723502}
  m_Enabled: 1
  m_EditorHideFlags: 0
  m_Script: {fileID: 11500000, guid: 9b93609eb4825f64cb89f74fdc2f8df7, type: 3}
  m_Name: 
  m_EditorClassIdentifier: 
  MaxHp: 20
  CurrentHp: 20
  invulnerable: 0
  HUDPortrait: {fileID: 21300000, guid: c90346347b968804b92ab7bd99e1464e, type: 3}
  PlayerName: Donatello
--- !u!114 &114215166796135322
MonoBehaviour:
  m_ObjectHideFlags: 0
  m_CorrespondingSourceObject: {fileID: 0}
  m_PrefabInstance: {fileID: 0}
  m_PrefabAsset: {fileID: 0}
  m_GameObject: {fileID: 1443228785723502}
  m_Enabled: 1
  m_EditorHideFlags: 0
  m_Script: {fileID: 11500000, guid: 92c817bdf7a91804abe62ab16fc98fdd, type: 3}
  m_Name: 
  m_EditorClassIdentifier: 
  walkSpeed: 3
  runSpeed: 6
  ZSpeed: 4.5
  JumpForce: -3.31
  AllowDepthJumping: 0
  AirAcceleration: 10.94
  AirMaxSpeed: 5
  rotationSpeed: 10
  jumpRotationSpeed: 8
  lookAheadDistance: 0.4
  landRecoveryTime: 0.1
  landTime: 0
  CollisionLayer:
    serializedVersion: 2
    m_Bits: 2048
  jumpUpVoice: PlayerJump
  jumpLandVoice: PlayerLand
  currentDirection: -1
  inputDirection: {x: 0, y: 0}
  jumpInProgress: 0
  capsuleMesh: {fileID: 0}
  capsuleMaterial: {fileID: 0}
--- !u!114 &114894661200743772
MonoBehaviour:
  m_ObjectHideFlags: 0
  m_CorrespondingSourceObject: {fileID: 0}
  m_PrefabInstance: {fileID: 0}
  m_PrefabAsset: {fileID: 0}
  m_GameObject: {fileID: 1443228785723502}
  m_Enabled: 1
  m_EditorHideFlags: 0
  m_Script: {fileID: 11500000, guid: 3a95774a56fa5824b80a4096a75a37fd, type: 3}
  m_Name: 
  m_EditorClassIdentifier: 
  weaponBone: {fileID: 4218021547317652}
  hitZRange: 2.2
  PunchCombo:
  - animTrigger: Punch1
    damage: 1
    duration: 0.22
    comboResetTime: 0.35
    forwardForce: 0
    knockBackForce: 0
    hitSFX: DefaultHit
    knockDown: 0
    slowMotionEffect: 0
    DefenceOverride: 0
    isGroundAttack: 0
    animationClip: {fileID: 0}
    animationSpeed: 0
    CollSize: 1
    collDistance: 0.76
    collHeight: 1.17
    hitTime: 0
    inflictor: {fileID: 1443228785723502}
  - animTrigger: Punch2
    damage: 2
    duration: 0.3
    comboResetTime: 0.35
    forwardForce: 0
    knockBackForce: 0
    hitSFX: DefaultHit
    knockDown: 0
    slowMotionEffect: 0
    DefenceOverride: 0
    isGroundAttack: 0
    animationClip: {fileID: 0}
    animationSpeed: 0
    CollSize: 1
    collDistance: 0.76
    collHeight: 1.17
    hitTime: 0
    inflictor: {fileID: 1443228785723502}
  - animTrigger: Punch3
    damage: 3
    duration: 0.5
    comboResetTime: 1
    forwardForce: 0
    knockBackForce: 0
    hitSFX: HeavyHit
    knockDown: 1
    slowMotionEffect: 0
    DefenceOverride: 0
    isGroundAttack: 0
    animationClip: {fileID: 0}
    animationSpeed: 0
    CollSize: 1
    collDistance: 0.76
    collHeight: 1.17
    hitTime: 0
    inflictor: {fileID: 1443228785723502}
  KickCombo:
  - animTrigger: Kick1
    damage: 2
    duration: 0.45
    comboResetTime: 0.35
    forwardForce: 0
    knockBackForce: 0
    hitSFX: DefaultHit
    knockDown: 0
    slowMotionEffect: 0
    DefenceOverride: 0
    isGroundAttack: 0
    animationClip: {fileID: 0}
    animationSpeed: 0
    CollSize: 1
    collDistance: 0.95
    collHeight: 1.1
    hitTime: 0
    inflictor: {fileID: 0}
  - animTrigger: Kick2
    damage: 3
    duration: 0.45
    comboResetTime: 0.35
    forwardForce: 0
    knockBackForce: 0
    hitSFX: HeavyHit
    knockDown: 1
    slowMotionEffect: 1
    DefenceOverride: 0
    isGroundAttack: 0
    animationClip: {fileID: 0}
    animationSpeed: 0
    CollSize: 1
    collDistance: 0.96
    collHeight: 1.15
    hitTime: 0
    inflictor: {fileID: 0}
  JumpKickData:
    animTrigger: JumpKick
    damage: 3
    duration: 1
    comboResetTime: 0
    forwardForce: 0
    knockBackForce: 0
    hitSFX: DefaultHit
    knockDown: 1
    slowMotionEffect: 1
    DefenceOverride: 1
    isGroundAttack: 0
    animationClip: {fileID: 0}
    animationSpeed: 0
    CollSize: 1.2
    collDistance: 0.58
    collHeight: 1.2
    hitTime: 0
    inflictor: {fileID: 0}
  GroundPunchData:
    animTrigger: GroundPunch
    damage: 2
    duration: 0.68
    comboResetTime: 0
    forwardForce: 0
    knockBackForce: 0
    hitSFX: GroundPunchHit
    knockDown: 0
    slowMotionEffect: 0
    DefenceOverride: 0
    isGroundAttack: 1
    animationClip: {fileID: 0}
    animationSpeed: 0
    CollSize: 1.1
    collDistance: 0.73
    collHeight: 0.2
    hitTime: 0
    inflictor: {fileID: 0}
  GroundKickData:
    animTrigger: GroundKick
    damage: 2
    duration: 1.1
    comboResetTime: 0
    forwardForce: 0
    knockBackForce: 0
    hitSFX: GroundPunchHit
    knockDown: 0
    slowMotionEffect: 0
    DefenceOverride: 0
    isGroundAttack: 1
    animationClip: {fileID: 0}
    animationSpeed: 0
    CollSize: 1.1
    collDistance: 0.73
    collHeight: 0.2
    hitTime: 0
    inflictor: {fileID: 0}
  RunningPunch:
    animTrigger: RunningPunch
    damage: 3
    duration: 0.6
    comboResetTime: 0
    forwardForce: 15
    knockBackForce: 5
    hitSFX: HeavyHit
    knockDown: 1
    slowMotionEffect: 1
    DefenceOverride: 1
    isGroundAttack: 0
    animationClip: {fileID: 0}
    animationSpeed: 0
    CollSize: 1
    collDistance: 0.55
    collHeight: 0.82
    hitTime: 7.3
    inflictor: {fileID: 0}
  RunningKick:
    animTrigger: RunningKick
    damage: 3
    duration: 0.7
    comboResetTime: 0
    forwardForce: 15
    knockBackForce: 5
    hitSFX: HeavyHit
    knockDown: 1
    slowMotionEffect: 1
    DefenceOverride: 1
    isGroundAttack: 0
    animationClip: {fileID: 0}
    animationSpeed: 0
    CollSize: 1
    collDistance: 0.55
    collHeight: 0.82
    hitTime: 7.3
    inflictor: {fileID: 0}
  blockAttacksFromBehind: 0
  comboContinueOnHit: 1
  resetComboChainOnChangeCombo: 0
  invulnerableDuringJump: 1
  hitRecoveryTime: 0.4
  hitThreshold: 0.2
  hitKnockBackForce: 3
  GroundAttackDistance: 1.4
  knockdownHitCount: 3
  KnockdownTimeout: 0
  KnockdownUpForce: 5
  KnockbackForce: 4
  KnockdownStandUpTime: 0.8
  knockdownVoiceSFX: PlayerKnockDownVoice
  hitVoiceSFX: PlayerHit
  deathVoiceSFX: 
  defenceHitSFX: DefendHit
  dropSFX: Drop
  currentDirection: -1
  itemInRange: {fileID: 0}
  targetHit: 0
--- !u!1 &1448580236982872
GameObject:
  m_ObjectHideFlags: 0
  m_CorrespondingSourceObject: {fileID: 0}
  m_PrefabInstance: {fileID: 0}
  m_PrefabAsset: {fileID: 0}
  serializedVersion: 6
  m_Component:
  - component: {fileID: 4084736474625668}
  m_Layer: 0
  m_Name: Bip001 R Finger02
  m_TagString: Untagged
  m_Icon: {fileID: 0}
  m_NavMeshLayer: 0
  m_StaticEditorFlags: 0
  m_IsActive: 1
--- !u!4 &4084736474625668
Transform:
  m_ObjectHideFlags: 0
  m_CorrespondingSourceObject: {fileID: 0}
  m_PrefabInstance: {fileID: 0}
  m_PrefabAsset: {fileID: 0}
  m_GameObject: {fileID: 1448580236982872}
  m_LocalRotation: {x: 0.000000016760541, y: 3.3072708e-10, z: 0.019728642, w: 0.9998054}
  m_LocalPosition: {x: -0.04651998, y: 0, z: 0.00000009689331}
  m_LocalScale: {x: 1.0000001, y: 1.0000002, z: 1}
  m_Children: []
  m_Father: {fileID: 4099500948406228}
  m_RootOrder: 0
  m_LocalEulerAnglesHint: {x: 0, y: 0, z: 0}
--- !u!1 &1476344349827116
GameObject:
  m_ObjectHideFlags: 0
  m_CorrespondingSourceObject: {fileID: 0}
  m_PrefabInstance: {fileID: 0}
  m_PrefabAsset: {fileID: 0}
  serializedVersion: 6
  m_Component:
  - component: {fileID: 4977213713172678}
  m_Layer: 0
  m_Name: PonyTail1
  m_TagString: Untagged
  m_Icon: {fileID: 0}
  m_NavMeshLayer: 0
  m_StaticEditorFlags: 0
  m_IsActive: 1
--- !u!4 &4977213713172678
Transform:
  m_ObjectHideFlags: 0
  m_CorrespondingSourceObject: {fileID: 0}
  m_PrefabInstance: {fileID: 0}
  m_PrefabAsset: {fileID: 0}
  m_GameObject: {fileID: 1476344349827116}
  m_LocalRotation: {x: 0.40202183, y: 0.9156301, z: 0.0000004848, w: -0.00000031850513}
  m_LocalPosition: {x: -0.15090358, y: -0.07937479, z: 0.0009292067}
  m_LocalScale: {x: 1.0000005, y: 1, z: 0.99999994}
  m_Children:
  - {fileID: 4866004931364170}
  m_Father: {fileID: 4584882897708256}
  m_RootOrder: 2
  m_LocalEulerAnglesHint: {x: 0, y: 0, z: 0}
--- !u!1 &1484250627192448
GameObject:
  m_ObjectHideFlags: 0
  m_CorrespondingSourceObject: {fileID: 0}
  m_PrefabInstance: {fileID: 0}
  m_PrefabAsset: {fileID: 0}
  serializedVersion: 6
  m_Component:
  - component: {fileID: 4218021547317652}
  m_Layer: 0
  m_Name: Bip001 R Hand
  m_TagString: Untagged
  m_Icon: {fileID: 0}
  m_NavMeshLayer: 0
  m_StaticEditorFlags: 0
  m_IsActive: 1
--- !u!4 &4218021547317652
Transform:
  m_ObjectHideFlags: 0
  m_CorrespondingSourceObject: {fileID: 0}
  m_PrefabInstance: {fileID: 0}
  m_PrefabAsset: {fileID: 0}
  m_GameObject: {fileID: 1484250627192448}
  m_LocalRotation: {x: 0.7059932, y: 0.034312923, z: -0.034285616, w: 0.70655555}
  m_LocalPosition: {x: -0.26605654, y: -0.000000024223327, z: 0}
  m_LocalScale: {x: 1, y: 1, z: 1.0000001}
  m_Children:
  - {fileID: 4514969796905218}
  - {fileID: 4762631487585482}
  - {fileID: 4721843633339916}
  - {fileID: 4719486162883426}
  - {fileID: 4304428951930298}
  m_Father: {fileID: 4484222620257646}
  m_RootOrder: 0
  m_LocalEulerAnglesHint: {x: 0, y: 0, z: 0}
--- !u!1 &1486291416873590
GameObject:
  m_ObjectHideFlags: 0
  m_CorrespondingSourceObject: {fileID: 0}
  m_PrefabInstance: {fileID: 0}
  m_PrefabAsset: {fileID: 0}
  serializedVersion: 6
  m_Component:
  - component: {fileID: 4663481012804192}
  m_Layer: 0
  m_Name: Bip001 L Finger3
  m_TagString: Untagged
  m_Icon: {fileID: 0}
  m_NavMeshLayer: 0
  m_StaticEditorFlags: 0
  m_IsActive: 1
--- !u!4 &4663481012804192
Transform:
  m_ObjectHideFlags: 0
  m_CorrespondingSourceObject: {fileID: 0}
  m_PrefabInstance: {fileID: 0}
  m_PrefabAsset: {fileID: 0}
  m_GameObject: {fileID: 1486291416873590}
  m_LocalRotation: {x: 0.0076391352, y: 0.08676441, z: -0.050547127, w: 0.9949164}
  m_LocalPosition: {x: -0.13705656, y: -0.0063797464, z: 0.025839992}
  m_LocalScale: {x: 1.0000001, y: 1, z: 0.99999994}
  m_Children:
  - {fileID: 4965407974438894}
  m_Father: {fileID: 4348689602496872}
  m_RootOrder: 3
  m_LocalEulerAnglesHint: {x: 0, y: 0, z: 0}
--- !u!1 &1487327900671838
GameObject:
  m_ObjectHideFlags: 0
  m_CorrespondingSourceObject: {fileID: 0}
  m_PrefabInstance: {fileID: 0}
  m_PrefabAsset: {fileID: 0}
  serializedVersion: 6
  m_Component:
  - component: {fileID: 4298212373918010}
  m_Layer: 0
  m_Name: Bip001 R Finger32
  m_TagString: Untagged
  m_Icon: {fileID: 0}
  m_NavMeshLayer: 0
  m_StaticEditorFlags: 0
  m_IsActive: 1
--- !u!4 &4298212373918010
Transform:
  m_ObjectHideFlags: 0
  m_CorrespondingSourceObject: {fileID: 0}
  m_PrefabInstance: {fileID: 0}
  m_PrefabAsset: {fileID: 0}
  m_GameObject: {fileID: 1487327900671838}
  m_LocalRotation: {x: 9.676306e-10, y: -0.0000000018440445, z: 0.019588638, w: 0.99980813}
  m_LocalPosition: {x: -0.037881166, y: 0.00000009689331, z: 0.000000012111664}
  m_LocalScale: {x: 0.99999994, y: 0.99999994, z: 1}
  m_Children: []
  m_Father: {fileID: 4617198424202698}
  m_RootOrder: 0
  m_LocalEulerAnglesHint: {x: 0, y: 0, z: 0}
--- !u!1 &1497716705721356
GameObject:
  m_ObjectHideFlags: 0
  m_CorrespondingSourceObject: {fileID: 0}
  m_PrefabInstance: {fileID: 0}
  m_PrefabAsset: {fileID: 0}
  serializedVersion: 6
  m_Component:
  - component: {fileID: 4813707866243098}
  m_Layer: 0
  m_Name: PonyTail3
  m_TagString: Untagged
  m_Icon: {fileID: 0}
  m_NavMeshLayer: 0
  m_StaticEditorFlags: 0
  m_IsActive: 1
--- !u!4 &4813707866243098
Transform:
  m_ObjectHideFlags: 0
  m_CorrespondingSourceObject: {fileID: 0}
  m_PrefabInstance: {fileID: 0}
  m_PrefabAsset: {fileID: 0}
  m_GameObject: {fileID: 1497716705721356}
  m_LocalRotation: {x: -7.2053256e-15, y: -6.4731427e-15, z: -0.09152321, w: 0.99580294}
  m_LocalPosition: {x: -0.048429213, y: -0.000000048446655, z: 6.0009897e-10}
  m_LocalScale: {x: 0.99999976, y: 0.624039, z: 0.51673365}
  m_Children: []
  m_Father: {fileID: 4866004931364170}
  m_RootOrder: 0
  m_LocalEulerAnglesHint: {x: 0, y: 0, z: 0}
--- !u!1 &1521775594661914
GameObject:
  m_ObjectHideFlags: 0
  m_CorrespondingSourceObject: {fileID: 0}
  m_PrefabInstance: {fileID: 0}
  m_PrefabAsset: {fileID: 0}
  serializedVersion: 6
  m_Component:
  - component: {fileID: 4230673977342550}
  m_Layer: 0
  m_Name: Bip001 L Finger2
  m_TagString: Untagged
  m_Icon: {fileID: 0}
  m_NavMeshLayer: 0
  m_StaticEditorFlags: 0
  m_IsActive: 1
--- !u!4 &4230673977342550
Transform:
  m_ObjectHideFlags: 0
  m_CorrespondingSourceObject: {fileID: 0}
  m_PrefabInstance: {fileID: 0}
  m_PrefabAsset: {fileID: 0}
  m_GameObject: {fileID: 1521775594661914}
  m_LocalRotation: {x: 0.0045185704, y: 0.026519567, z: 0.012144214, w: 0.99956435}
  m_LocalPosition: {x: -0.13801275, y: -0.00032217026, z: -0.008587697}
  m_LocalScale: {x: 1.0000001, y: 1, z: 1.0000001}
  m_Children:
  - {fileID: 4520170098818706}
  m_Father: {fileID: 4348689602496872}
  m_RootOrder: 2
  m_LocalEulerAnglesHint: {x: 0, y: 0, z: 0}
--- !u!1 &1562251202347032
GameObject:
  m_ObjectHideFlags: 0
  m_CorrespondingSourceObject: {fileID: 0}
  m_PrefabInstance: {fileID: 0}
  m_PrefabAsset: {fileID: 0}
  serializedVersion: 6
  m_Component:
  - component: {fileID: 4957012867477850}
  m_Layer: 0
  m_Name: Bip001 R Thigh
  m_TagString: Untagged
  m_Icon: {fileID: 0}
  m_NavMeshLayer: 0
  m_StaticEditorFlags: 0
  m_IsActive: 1
--- !u!4 &4957012867477850
Transform:
  m_ObjectHideFlags: 0
  m_CorrespondingSourceObject: {fileID: 0}
  m_PrefabInstance: {fileID: 0}
  m_PrefabAsset: {fileID: 0}
  m_GameObject: {fileID: 1562251202347032}
  m_LocalRotation: {x: -0.0008377936, y: 0.99906623, z: -0.0007596344, w: -0.04318987}
  m_LocalPosition: {x: -0.00000009689331, y: -0.000000090837474, z: -0.09317723}
  m_LocalScale: {x: 1, y: 0.99999994, z: 1}
  m_Children:
  - {fileID: 4132896889056134}
  m_Father: {fileID: 4522060794589592}
  m_RootOrder: 1
  m_LocalEulerAnglesHint: {x: 0, y: 0, z: 0}
--- !u!1 &1568600471469262
GameObject:
  m_ObjectHideFlags: 0
  m_CorrespondingSourceObject: {fileID: 0}
  m_PrefabInstance: {fileID: 0}
  m_PrefabAsset: {fileID: 0}
  serializedVersion: 6
  m_Component:
  - component: {fileID: 4004783150052384}
  m_Layer: 0
  m_Name: Bip001 L Finger1
  m_TagString: Untagged
  m_Icon: {fileID: 0}
  m_NavMeshLayer: 0
  m_StaticEditorFlags: 0
  m_IsActive: 1
--- !u!4 &4004783150052384
Transform:
  m_ObjectHideFlags: 0
  m_CorrespondingSourceObject: {fileID: 0}
  m_PrefabInstance: {fileID: 0}
  m_PrefabAsset: {fileID: 0}
  m_GameObject: {fileID: 1568600471469262}
  m_LocalRotation: {x: -0.0049343235, y: -0.08078918, z: 0.0024107099, w: 0.9967161}
  m_LocalPosition: {x: -0.13704091, y: -0.0028767623, z: -0.039859205}
  m_LocalScale: {x: 1, y: 1, z: 0.99999994}
  m_Children:
  - {fileID: 4756905921220306}
  m_Father: {fileID: 4348689602496872}
  m_RootOrder: 1
  m_LocalEulerAnglesHint: {x: 0, y: 0, z: 0}
--- !u!1 &1596378739308942
GameObject:
  m_ObjectHideFlags: 0
  m_CorrespondingSourceObject: {fileID: 0}
  m_PrefabInstance: {fileID: 0}
  m_PrefabAsset: {fileID: 0}
  serializedVersion: 6
  m_Component:
  - component: {fileID: 4762631487585482}
  m_Layer: 0
  m_Name: Bip001 R Finger1
  m_TagString: Untagged
  m_Icon: {fileID: 0}
  m_NavMeshLayer: 0
  m_StaticEditorFlags: 0
  m_IsActive: 1
--- !u!4 &4762631487585482
Transform:
  m_ObjectHideFlags: 0
  m_CorrespondingSourceObject: {fileID: 0}
  m_PrefabInstance: {fileID: 0}
  m_PrefabAsset: {fileID: 0}
  m_GameObject: {fileID: 1596378739308942}
  m_LocalRotation: {x: 0.0049343263, y: 0.08078916, z: 0.0024106798, w: 0.9967161}
  m_LocalPosition: {x: -0.13704091, y: -0.0028767623, z: 0.039859205}
  m_LocalScale: {x: 1, y: 0.99999994, z: 0.9999999}
  m_Children:
  - {fileID: 4153165670158978}
  m_Father: {fileID: 4218021547317652}
  m_RootOrder: 1
  m_LocalEulerAnglesHint: {x: 0, y: 0, z: 0}
--- !u!1 &1607675231894744
GameObject:
  m_ObjectHideFlags: 0
  m_CorrespondingSourceObject: {fileID: 0}
  m_PrefabInstance: {fileID: 0}
  m_PrefabAsset: {fileID: 0}
  serializedVersion: 6
  m_Component:
  - component: {fileID: 4450062321121254}
  m_Layer: 0
  m_Name: Bip001 L Toe0
  m_TagString: Untagged
  m_Icon: {fileID: 0}
  m_NavMeshLayer: 0
  m_StaticEditorFlags: 0
  m_IsActive: 1
--- !u!4 &4450062321121254
Transform:
  m_ObjectHideFlags: 0
  m_CorrespondingSourceObject: {fileID: 0}
  m_PrefabInstance: {fileID: 0}
  m_PrefabAsset: {fileID: 0}
  m_GameObject: {fileID: 1607675231894744}
  m_LocalRotation: {x: 0.000000015454313, y: -0.000000015454313, z: -0.7071068, w: 0.7071068}
  m_LocalPosition: {x: -0.10116897, y: 0.19018808, z: 0}
  m_LocalScale: {x: 1, y: 1, z: 1}
  m_Children: []
  m_Father: {fileID: 4728757241758258}
  m_RootOrder: 0
  m_LocalEulerAnglesHint: {x: 0, y: 0, z: 0}
--- !u!1 &1622180930684088
GameObject:
  m_ObjectHideFlags: 0
  m_CorrespondingSourceObject: {fileID: 0}
  m_PrefabInstance: {fileID: 0}
  m_PrefabAsset: {fileID: 0}
  serializedVersion: 6
  m_Component:
  - component: {fileID: 4617198424202698}
  m_Layer: 0
  m_Name: Bip001 R Finger31
  m_TagString: Untagged
  m_Icon: {fileID: 0}
  m_NavMeshLayer: 0
  m_StaticEditorFlags: 0
  m_IsActive: 1
--- !u!4 &4617198424202698
Transform:
  m_ObjectHideFlags: 0
  m_CorrespondingSourceObject: {fileID: 0}
  m_PrefabInstance: {fileID: 0}
  m_PrefabAsset: {fileID: 0}
  m_GameObject: {fileID: 1622180930684088}
  m_LocalRotation: {x: 8.581704e-10, y: 0.0000000037428185, z: 0.019588621, w: 0.99980813}
  m_LocalPosition: {x: -0.03788107, y: 0, z: 0}
  m_LocalScale: {x: 1.0000001, y: 1.0000002, z: 1}
  m_Children:
  - {fileID: 4298212373918010}
  m_Father: {fileID: 4719486162883426}
  m_RootOrder: 0
  m_LocalEulerAnglesHint: {x: 0, y: 0, z: 0}
--- !u!1 &1639433216417854
GameObject:
  m_ObjectHideFlags: 0
  m_CorrespondingSourceObject: {fileID: 0}
  m_PrefabInstance: {fileID: 0}
  m_PrefabAsset: {fileID: 0}
  serializedVersion: 6
  m_Component:
  - component: {fileID: 4009655382119326}
  m_Layer: 0
  m_Name: Bip001 Spine1
  m_TagString: Untagged
  m_Icon: {fileID: 0}
  m_NavMeshLayer: 0
  m_StaticEditorFlags: 0
  m_IsActive: 1
--- !u!4 &4009655382119326
Transform:
  m_ObjectHideFlags: 0
  m_CorrespondingSourceObject: {fileID: 0}
  m_PrefabInstance: {fileID: 0}
  m_PrefabAsset: {fileID: 0}
  m_GameObject: {fileID: 1639433216417854}
  m_LocalRotation: {x: -3.0117673e-14, y: 0, z: -0, w: 1}
  m_LocalPosition: {x: -0.14424245, y: -0.00011485793, z: -3.784895e-10}
  m_LocalScale: {x: 1, y: 1, z: 1}
  m_Children:
  - {fileID: 4873853081375766}
  m_Father: {fileID: 4725544116055740}
  m_RootOrder: 0
  m_LocalEulerAnglesHint: {x: 0, y: 0, z: 0}
--- !u!1 &1663858505779440
GameObject:
  m_ObjectHideFlags: 0
  m_CorrespondingSourceObject: {fileID: 0}
  m_PrefabInstance: {fileID: 0}
  m_PrefabAsset: {fileID: 0}
  serializedVersion: 6
  m_Component:
  - component: {fileID: 4833993118167026}
  m_Layer: 0
  m_Name: Bip001 L Finger0
  m_TagString: Untagged
  m_Icon: {fileID: 0}
  m_NavMeshLayer: 0
  m_StaticEditorFlags: 0
  m_IsActive: 1
--- !u!4 &4833993118167026
Transform:
  m_ObjectHideFlags: 0
  m_CorrespondingSourceObject: {fileID: 0}
  m_PrefabInstance: {fileID: 0}
  m_PrefabAsset: {fileID: 0}
  m_GameObject: {fileID: 1663858505779440}
  m_LocalRotation: {x: 0.8311738, y: -0.20255886, z: 0.1356863, w: 0.49970922}
  m_LocalPosition: {x: -0.05354576, y: 0.044699695, z: -0.059425224}
  m_LocalScale: {x: 1.0000001, y: 1.0000001, z: 1}
  m_Children:
  - {fileID: 4223286497683150}
  m_Father: {fileID: 4348689602496872}
  m_RootOrder: 0
  m_LocalEulerAnglesHint: {x: 0, y: 0, z: 0}
--- !u!1 &1664775890822160
GameObject:
  m_ObjectHideFlags: 0
  m_CorrespondingSourceObject: {fileID: 0}
  m_PrefabInstance: {fileID: 0}
  m_PrefabAsset: {fileID: 0}
  serializedVersion: 6
  m_Component:
  - component: {fileID: 4960129061582474}
  m_Layer: 0
  m_Name: Bip001 L Finger32
  m_TagString: Untagged
  m_Icon: {fileID: 0}
  m_NavMeshLayer: 0
  m_StaticEditorFlags: 0
  m_IsActive: 1
--- !u!4 &4960129061582474
Transform:
  m_ObjectHideFlags: 0
  m_CorrespondingSourceObject: {fileID: 0}
  m_PrefabInstance: {fileID: 0}
  m_PrefabAsset: {fileID: 0}
  m_GameObject: {fileID: 1664775890822160}
  m_LocalRotation: {x: 0.000000003797548, y: -0.0000000036516015, z: 0.01958862, w: 0.99980813}
  m_LocalPosition: {x: -0.037881263, y: 0.00000009689331, z: 0}
  m_LocalScale: {x: 1.0000002, y: 1.0000002, z: 1.0000001}
  m_Children: []
  m_Father: {fileID: 4965407974438894}
  m_RootOrder: 0
  m_LocalEulerAnglesHint: {x: 0, y: 0, z: 0}
--- !u!1 &1728977233422324
GameObject:
  m_ObjectHideFlags: 0
  m_CorrespondingSourceObject: {fileID: 0}
  m_PrefabInstance: {fileID: 0}
  m_PrefabAsset: {fileID: 0}
  serializedVersion: 6
  m_Component:
  - component: {fileID: 4721843633339916}
  m_Layer: 0
  m_Name: Bip001 R Finger2
  m_TagString: Untagged
  m_Icon: {fileID: 0}
  m_NavMeshLayer: 0
  m_StaticEditorFlags: 0
  m_IsActive: 1
--- !u!4 &4721843633339916
Transform:
  m_ObjectHideFlags: 0
  m_CorrespondingSourceObject: {fileID: 0}
  m_PrefabInstance: {fileID: 0}
  m_PrefabAsset: {fileID: 0}
  m_GameObject: {fileID: 1728977233422324}
  m_LocalRotation: {x: -0.004518563, y: -0.026519582, z: 0.0121442145, w: 0.99956435}
  m_LocalPosition: {x: -0.1380128, y: -0.00032207335, z: 0.00858769}
  m_LocalScale: {x: 1.0000001, y: 0.99999994, z: 1.0000001}
  m_Children:
  - {fileID: 4920664381110928}
  m_Father: {fileID: 4218021547317652}
  m_RootOrder: 2
  m_LocalEulerAnglesHint: {x: 0, y: 0, z: 0}
--- !u!1 &1735468084769012
GameObject:
  m_ObjectHideFlags: 0
  m_CorrespondingSourceObject: {fileID: 0}
  m_PrefabInstance: {fileID: 0}
  m_PrefabAsset: {fileID: 0}
  serializedVersion: 6
  m_Component:
  - component: {fileID: 4763141242093998}
  m_Layer: 0
  m_Name: Bip001 L Thigh
  m_TagString: Untagged
  m_Icon: {fileID: 0}
  m_NavMeshLayer: 0
  m_StaticEditorFlags: 0
  m_IsActive: 1
--- !u!4 &4763141242093998
Transform:
  m_ObjectHideFlags: 0
  m_CorrespondingSourceObject: {fileID: 0}
  m_PrefabInstance: {fileID: 0}
  m_PrefabAsset: {fileID: 0}
  m_GameObject: {fileID: 1735468084769012}
  m_LocalRotation: {x: -0.00083785236, y: 0.9990663, z: 0.00075825024, w: 0.0431884}
  m_LocalPosition: {x: 0.00000009689331, y: 0.0000001695633, z: 0.09317723}
  m_LocalScale: {x: 1, y: 0.99999994, z: 0.99999994}
  m_Children:
  - {fileID: 4127722078509466}
  m_Father: {fileID: 4522060794589592}
  m_RootOrder: 0
  m_LocalEulerAnglesHint: {x: 0, y: 0, z: 0}
--- !u!1 &1750814354634038
GameObject:
  m_ObjectHideFlags: 0
  m_CorrespondingSourceObject: {fileID: 0}
  m_PrefabInstance: {fileID: 0}
  m_PrefabAsset: {fileID: 0}
  serializedVersion: 6
  m_Component:
  - component: {fileID: 4348689602496872}
  m_Layer: 0
  m_Name: Bip001 L Hand
  m_TagString: Untagged
  m_Icon: {fileID: 0}
  m_NavMeshLayer: 0
  m_StaticEditorFlags: 0
  m_IsActive: 1
--- !u!4 &4348689602496872
Transform:
  m_ObjectHideFlags: 0
  m_CorrespondingSourceObject: {fileID: 0}
  m_PrefabInstance: {fileID: 0}
  m_PrefabAsset: {fileID: 0}
  m_GameObject: {fileID: 1750814354634038}
  m_LocalRotation: {x: -0.7059932, y: -0.03431292, z: -0.0342856, w: 0.70655555}
  m_LocalPosition: {x: -0.26605657, y: -0.000000036334992, z: 0.00000019378662}
  m_LocalScale: {x: 1, y: 1, z: 1.0000001}
  m_Children:
  - {fileID: 4833993118167026}
  - {fileID: 4004783150052384}
  - {fileID: 4230673977342550}
  - {fileID: 4663481012804192}
  - {fileID: 4833943245782522}
  m_Father: {fileID: 4881076124143744}
  m_RootOrder: 0
  m_LocalEulerAnglesHint: {x: 0, y: 0, z: 0}
--- !u!1 &1771718449339174
GameObject:
  m_ObjectHideFlags: 0
  m_CorrespondingSourceObject: {fileID: 0}
  m_PrefabInstance: {fileID: 0}
  m_PrefabAsset: {fileID: 0}
  serializedVersion: 6
  m_Component:
  - component: {fileID: 4965407974438894}
  m_Layer: 0
  m_Name: Bip001 L Finger31
  m_TagString: Untagged
  m_Icon: {fileID: 0}
  m_NavMeshLayer: 0
  m_StaticEditorFlags: 0
  m_IsActive: 1
--- !u!4 &4965407974438894
Transform:
  m_ObjectHideFlags: 0
  m_CorrespondingSourceObject: {fileID: 0}
  m_PrefabInstance: {fileID: 0}
  m_PrefabAsset: {fileID: 0}
  m_GameObject: {fileID: 1771718449339174}
  m_LocalRotation: {x: -0.0000000065909798, y: 0.0000000035968717, z: 0.01958862, w: 0.99980813}
  m_LocalPosition: {x: -0.037881117, y: 0.00000009689331, z: 0}
  m_LocalScale: {x: 1.0000001, y: 1.0000001, z: 1}
  m_Children:
  - {fileID: 4960129061582474}
  m_Father: {fileID: 4663481012804192}
  m_RootOrder: 0
  m_LocalEulerAnglesHint: {x: 0, y: 0, z: 0}
--- !u!1 &1784135709682028
GameObject:
  m_ObjectHideFlags: 0
  m_CorrespondingSourceObject: {fileID: 0}
  m_PrefabInstance: {fileID: 0}
  m_PrefabAsset: {fileID: 0}
  serializedVersion: 6
  m_Component:
  - component: {fileID: 4323172529085320}
  m_Layer: 0
  m_Name: Bip001 L Finger22
  m_TagString: Untagged
  m_Icon: {fileID: 0}
  m_NavMeshLayer: 0
  m_StaticEditorFlags: 0
  m_IsActive: 1
--- !u!4 &4323172529085320
Transform:
  m_ObjectHideFlags: 0
  m_CorrespondingSourceObject: {fileID: 0}
  m_PrefabInstance: {fileID: 0}
  m_PrefabAsset: {fileID: 0}
  m_GameObject: {fileID: 1784135709682028}
  m_LocalRotation: {x: 4.3188873e-11, y: -0.0000000037250407, z: 0.011593423, w: 0.9999328}
  m_LocalPosition: {x: -0.040047508, y: 0, z: 0.000000006055832}
  m_LocalScale: {x: 0.9999999, y: 1, z: 0.99999994}
  m_Children: []
  m_Father: {fileID: 4520170098818706}
  m_RootOrder: 0
  m_LocalEulerAnglesHint: {x: 0, y: 0, z: 0}
--- !u!1 &1784581099074250
GameObject:
  m_ObjectHideFlags: 0
  m_CorrespondingSourceObject: {fileID: 0}
  m_PrefabInstance: {fileID: 0}
  m_PrefabAsset: {fileID: 0}
  serializedVersion: 6
  m_Component:
  - component: {fileID: 4099500948406228}
  m_Layer: 0
  m_Name: Bip001 R Finger01
  m_TagString: Untagged
  m_Icon: {fileID: 0}
  m_NavMeshLayer: 0
  m_StaticEditorFlags: 0
  m_IsActive: 1
--- !u!4 &4099500948406228
Transform:
  m_ObjectHideFlags: 0
  m_CorrespondingSourceObject: {fileID: 0}
  m_PrefabInstance: {fileID: 0}
  m_PrefabAsset: {fileID: 0}
  m_GameObject: {fileID: 1784581099074250}
  m_LocalRotation: {x: 0, y: 0, z: -0.096080996, w: 0.99537355}
  m_LocalPosition: {x: -0.044411436, y: -0.000000024223327, z: -0.00000009689331}
  m_LocalScale: {x: 1, y: 1, z: 1}
  m_Children:
  - {fileID: 4084736474625668}
  m_Father: {fileID: 4514969796905218}
  m_RootOrder: 0
  m_LocalEulerAnglesHint: {x: 0, y: 0, z: 0}
--- !u!1 &1813145098073852
GameObject:
  m_ObjectHideFlags: 0
  m_CorrespondingSourceObject: {fileID: 0}
  m_PrefabInstance: {fileID: 0}
  m_PrefabAsset: {fileID: 0}
  serializedVersion: 6
  m_Component:
  - component: {fileID: 4833943245782522}
  m_Layer: 0
  m_Name: Bip001 L Finger4
  m_TagString: Untagged
  m_Icon: {fileID: 0}
  m_NavMeshLayer: 0
  m_StaticEditorFlags: 0
  m_IsActive: 1
--- !u!4 &4833943245782522
Transform:
  m_ObjectHideFlags: 0
  m_CorrespondingSourceObject: {fileID: 0}
  m_PrefabInstance: {fileID: 0}
  m_PrefabAsset: {fileID: 0}
  m_GameObject: {fileID: 1813145098073852}
  m_LocalRotation: {x: 0.027066292, y: 0.17146966, z: 0.015432091, w: 0.9846966}
  m_LocalPosition: {x: -0.13244128, y: 0.005588903, z: 0.05876125}
  m_LocalScale: {x: 1.0000001, y: 0.99999994, z: 1.0000001}
  m_Children:
  - {fileID: 4570745193876858}
  m_Father: {fileID: 4348689602496872}
  m_RootOrder: 4
  m_LocalEulerAnglesHint: {x: 0, y: 0, z: 0}
--- !u!1 &1822986424986914
GameObject:
  m_ObjectHideFlags: 0
  m_CorrespondingSourceObject: {fileID: 0}
  m_PrefabInstance: {fileID: 0}
  m_PrefabAsset: {fileID: 0}
  serializedVersion: 6
  m_Component:
  - component: {fileID: 4096574857446700}
  m_Layer: 0
  m_Name: Bip001 Neck
  m_TagString: Untagged
  m_Icon: {fileID: 0}
  m_NavMeshLayer: 0
  m_StaticEditorFlags: 0
  m_IsActive: 1
--- !u!4 &4096574857446700
Transform:
  m_ObjectHideFlags: 0
  m_CorrespondingSourceObject: {fileID: 0}
  m_PrefabInstance: {fileID: 0}
  m_PrefabAsset: {fileID: 0}
  m_GameObject: {fileID: 1822986424986914}
  m_LocalRotation: {x: -8.718773e-14, y: 0.0000003620275, z: -0.1305262, w: 0.9914449}
  m_LocalPosition: {x: -0.20661752, y: -0.07662697, z: 0.0000000019870698}
  m_LocalScale: {x: 1, y: 1, z: 1}
  m_Children:
  - {fileID: 4584882897708256}
  m_Father: {fileID: 4873853081375766}
  m_RootOrder: 1
  m_LocalEulerAnglesHint: {x: 0, y: 0, z: 0}
--- !u!1 &1829467720751858
GameObject:
  m_ObjectHideFlags: 0
  m_CorrespondingSourceObject: {fileID: 0}
  m_PrefabInstance: {fileID: 0}
  m_PrefabAsset: {fileID: 0}
  serializedVersion: 6
  m_Component:
  - component: {fileID: 4719486162883426}
  m_Layer: 0
  m_Name: Bip001 R Finger3
  m_TagString: Untagged
  m_Icon: {fileID: 0}
  m_NavMeshLayer: 0
  m_StaticEditorFlags: 0
  m_IsActive: 1
--- !u!4 &4719486162883426
Transform:
  m_ObjectHideFlags: 0
  m_CorrespondingSourceObject: {fileID: 0}
  m_PrefabInstance: {fileID: 0}
  m_PrefabAsset: {fileID: 0}
  m_GameObject: {fileID: 1829467720751858}
  m_LocalRotation: {x: -0.0076391334, y: -0.0867644, z: -0.050547156, w: 0.9949164}
  m_LocalPosition: {x: -0.1370566, y: -0.0063796495, z: -0.02583998}
  m_LocalScale: {x: 1.0000001, y: 1, z: 1}
  m_Children:
  - {fileID: 4617198424202698}
  m_Father: {fileID: 4218021547317652}
  m_RootOrder: 3
  m_LocalEulerAnglesHint: {x: 0, y: 0, z: 0}
--- !u!1 &1834352188207060
GameObject:
  m_ObjectHideFlags: 0
  m_CorrespondingSourceObject: {fileID: 0}
  m_PrefabInstance: {fileID: 0}
  m_PrefabAsset: {fileID: 0}
  serializedVersion: 6
  m_Component:
  - component: {fileID: 4866004931364170}
  m_Layer: 0
  m_Name: PonyTail2
  m_TagString: Untagged
  m_Icon: {fileID: 0}
  m_NavMeshLayer: 0
  m_StaticEditorFlags: 0
  m_IsActive: 1
--- !u!4 &4866004931364170
Transform:
  m_ObjectHideFlags: 0
  m_CorrespondingSourceObject: {fileID: 0}
  m_PrefabInstance: {fileID: 0}
  m_PrefabAsset: {fileID: 0}
  m_GameObject: {fileID: 1834352188207060}
  m_LocalRotation: {x: 4.3198443e-15, y: -9.072659e-15, z: -0.3344496, w: 0.9424137}
  m_LocalPosition: {x: -0.04677224, y: 0, z: 0.0000000054254703}
  m_LocalScale: {x: 1, y: 1.0000001, z: 1.2459993}
  m_Children:
  - {fileID: 4813707866243098}
  m_Father: {fileID: 4977213713172678}
  m_RootOrder: 0
  m_LocalEulerAnglesHint: {x: 0, y: 0, z: 0}
--- !u!1 &1867981756899886
GameObject:
  m_ObjectHideFlags: 0
  m_CorrespondingSourceObject: {fileID: 0}
  m_PrefabInstance: {fileID: 0}
  m_PrefabAsset: {fileID: 0}
  serializedVersion: 6
  m_Component:
  - component: {fileID: 4602368850699402}
  m_Layer: 0
  m_Name: Bip001 L Finger02
  m_TagString: Untagged
  m_Icon: {fileID: 0}
  m_NavMeshLayer: 0
  m_StaticEditorFlags: 0
  m_IsActive: 1
--- !u!4 &4602368850699402
Transform:
  m_ObjectHideFlags: 0
  m_CorrespondingSourceObject: {fileID: 0}
  m_PrefabInstance: {fileID: 0}
  m_PrefabAsset: {fileID: 0}
  m_GameObject: {fileID: 1867981756899886}
  m_LocalRotation: {x: 0.000000014898262, y: 2.939793e-10, z: 0.019728616, w: 0.9998054}
  m_LocalPosition: {x: -0.04652003, y: 0, z: -0.00000009689331}
  m_LocalScale: {x: 1.0000001, y: 0.99999994, z: 1}
  m_Children: []
  m_Father: {fileID: 4223286497683150}
  m_RootOrder: 0
  m_LocalEulerAnglesHint: {x: 0, y: 0, z: 0}
--- !u!1 &1944135741467872
GameObject:
  m_ObjectHideFlags: 0
  m_CorrespondingSourceObject: {fileID: 0}
  m_PrefabInstance: {fileID: 0}
  m_PrefabAsset: {fileID: 0}
  serializedVersion: 6
  m_Component:
  - component: {fileID: 4484222620257646}
  m_Layer: 0
  m_Name: Bip001 R Forearm
  m_TagString: Untagged
  m_Icon: {fileID: 0}
  m_NavMeshLayer: 0
  m_StaticEditorFlags: 0
  m_IsActive: 1
--- !u!4 &4484222620257646
Transform:
  m_ObjectHideFlags: 0
  m_CorrespondingSourceObject: {fileID: 0}
  m_PrefabInstance: {fileID: 0}
  m_PrefabAsset: {fileID: 0}
  m_GameObject: {fileID: 1944135741467872}
  m_LocalRotation: {x: -1.5643821e-10, y: 0.000000045319844, z: 0.1678029, w: 0.9858206}
  m_LocalPosition: {x: -0.2496507, y: -0.000000006055832, z: 0}
  m_LocalScale: {x: 0.99999994, y: 0.99999994, z: 1}
  m_Children:
  - {fileID: 4218021547317652}
  m_Father: {fileID: 4403389651020872}
  m_RootOrder: 0
  m_LocalEulerAnglesHint: {x: 0, y: 0, z: 0}
--- !u!1 &1949648227834144
GameObject:
  m_ObjectHideFlags: 0
  m_CorrespondingSourceObject: {fileID: 0}
  m_PrefabInstance: {fileID: 0}
  m_PrefabAsset: {fileID: 0}
  serializedVersion: 6
  m_Component:
  - component: {fileID: 4409424734220706}
  - component: {fileID: 95899383307112096}
  - component: {fileID: 114664003058946536}
  m_Layer: 0
  m_Name: GFX
  m_TagString: Untagged
  m_Icon: {fileID: 0}
  m_NavMeshLayer: 0
  m_StaticEditorFlags: 0
  m_IsActive: 0
--- !u!4 &4409424734220706
Transform:
  m_ObjectHideFlags: 0
  m_CorrespondingSourceObject: {fileID: 0}
  m_PrefabInstance: {fileID: 0}
  m_PrefabAsset: {fileID: 0}
  m_GameObject: {fileID: 1949648227834144}
  m_LocalRotation: {x: 0, y: -0.7071068, z: 0, w: 0.7071068}
  m_LocalPosition: {x: 0, y: 0, z: 0}
  m_LocalScale: {x: 1, y: 1, z: 1}
  m_Children:
  - {fileID: 4079176286837876}
  - {fileID: 4835960399773616}
  m_Father: {fileID: 4061772092445518}
  m_RootOrder: 0
  m_LocalEulerAnglesHint: {x: 0, y: -90, z: 0}
--- !u!95 &95899383307112096
Animator:
  serializedVersion: 3
  m_ObjectHideFlags: 0
  m_CorrespondingSourceObject: {fileID: 0}
  m_PrefabInstance: {fileID: 0}
  m_PrefabAsset: {fileID: 0}
  m_GameObject: {fileID: 1949648227834144}
  m_Enabled: 1
  m_Avatar: {fileID: 9000000, guid: 68ff77d4e131db34586dc6f268e92dca, type: 3}
  m_Controller: {fileID: 9100000, guid: f21b05c218c1d684fbeb45aad84b001d, type: 2}
  m_CullingMode: 0
  m_UpdateMode: 0
  m_ApplyRootMotion: 0
  m_LinearVelocityBlending: 0
  m_WarningMessage: 
  m_HasTransformHierarchy: 1
  m_AllowConstantClipSamplingOptimization: 1
  m_KeepAnimatorControllerStateOnDisable: 0
--- !u!114 &114664003058946536
MonoBehaviour:
  m_ObjectHideFlags: 0
  m_CorrespondingSourceObject: {fileID: 0}
  m_PrefabInstance: {fileID: 0}
  m_PrefabAsset: {fileID: 0}
  m_GameObject: {fileID: 1949648227834144}
  m_Enabled: 1
  m_EditorHideFlags: 0
  m_Script: {fileID: 11500000, guid: 3823eadb584051942908677b03d951e9, type: 3}
  m_Name: 
  m_EditorClassIdentifier: 
  currentDirection: -1
  DustEffectLand: {fileID: 115594, guid: 6c925d90c8ae6b148b428e7fe79c3f71, type: 3}
  DustEffectJump: {fileID: 1350558754252556, guid: aa01e8fe85c4b55498cb17f0e85d5b2f, type: 3}
  HitEffect: {fileID: 115594, guid: efd3011863918584d94591e177fa8d29, type: 3}
  DefendEffect: {fileID: 194486, guid: 103ca3ac1720c8445935db20b30e3305, type: 3}
  animator: {fileID: 0}
--- !u!1001 &1100954617869732838
PrefabInstance:
  m_ObjectHideFlags: 0
  serializedVersion: 2
  m_Modification:
    m_TransformParent: {fileID: 2177421924412185346}
    m_Modifications:
    - target: {fileID: -8679921383154817045, guid: f29f15a0498f72741b63713962a9a007, type: 3}
      propertyPath: m_RootOrder
      value: 3
      objectReference: {fileID: 0}
    - target: {fileID: -8679921383154817045, guid: f29f15a0498f72741b63713962a9a007, type: 3}
      propertyPath: m_LocalPosition.x
      value: 0.109
      objectReference: {fileID: 0}
    - target: {fileID: -8679921383154817045, guid: f29f15a0498f72741b63713962a9a007, type: 3}
      propertyPath: m_LocalPosition.y
      value: 0.206
      objectReference: {fileID: 0}
    - target: {fileID: -8679921383154817045, guid: f29f15a0498f72741b63713962a9a007, type: 3}
      propertyPath: m_LocalPosition.z
      value: 0.065
      objectReference: {fileID: 0}
    - target: {fileID: -8679921383154817045, guid: f29f15a0498f72741b63713962a9a007, type: 3}
      propertyPath: m_LocalRotation.w
      value: 0.52413833
      objectReference: {fileID: 0}
    - target: {fileID: -8679921383154817045, guid: f29f15a0498f72741b63713962a9a007, type: 3}
      propertyPath: m_LocalRotation.x
      value: -0.5241384
      objectReference: {fileID: 0}
    - target: {fileID: -8679921383154817045, guid: f29f15a0498f72741b63713962a9a007, type: 3}
      propertyPath: m_LocalRotation.y
      value: 0.47463563
      objectReference: {fileID: 0}
    - target: {fileID: -8679921383154817045, guid: f29f15a0498f72741b63713962a9a007, type: 3}
      propertyPath: m_LocalRotation.z
      value: -0.47463563
      objectReference: {fileID: 0}
    - target: {fileID: -8679921383154817045, guid: f29f15a0498f72741b63713962a9a007, type: 3}
      propertyPath: m_LocalEulerAnglesHint.x
      value: -174.325
      objectReference: {fileID: 0}
    - target: {fileID: -8679921383154817045, guid: f29f15a0498f72741b63713962a9a007, type: 3}
      propertyPath: m_LocalEulerAnglesHint.y
      value: -90
      objectReference: {fileID: 0}
    - target: {fileID: -8679921383154817045, guid: f29f15a0498f72741b63713962a9a007, type: 3}
      propertyPath: m_LocalEulerAnglesHint.z
      value: 90
      objectReference: {fileID: 0}
    - target: {fileID: 919132149155446097, guid: f29f15a0498f72741b63713962a9a007, type: 3}
      propertyPath: m_Name
      value: LeftNinjaSword
      objectReference: {fileID: 0}
    m_RemovedComponents: []
  m_SourcePrefab: {fileID: 100100000, guid: f29f15a0498f72741b63713962a9a007, type: 3}
--- !u!1001 &4903194466604469953
PrefabInstance:
  m_ObjectHideFlags: 0
  serializedVersion: 2
  m_Modification:
    m_TransformParent: {fileID: 4061772092445518}
    m_Modifications:
    - target: {fileID: -8679921383154817045, guid: aa40f99312d1de0479c1da7840ab104f, type: 3}
      propertyPath: m_RootOrder
      value: 2
      objectReference: {fileID: 0}
    - target: {fileID: -8679921383154817045, guid: aa40f99312d1de0479c1da7840ab104f, type: 3}
      propertyPath: m_LocalScale.x
      value: 0.93417716
      objectReference: {fileID: 0}
    - target: {fileID: -8679921383154817045, guid: aa40f99312d1de0479c1da7840ab104f, type: 3}
      propertyPath: m_LocalScale.y
      value: 0.93417716
      objectReference: {fileID: 0}
    - target: {fileID: -8679921383154817045, guid: aa40f99312d1de0479c1da7840ab104f, type: 3}
      propertyPath: m_LocalScale.z
      value: 0.93417716
      objectReference: {fileID: 0}
    - target: {fileID: -8679921383154817045, guid: aa40f99312d1de0479c1da7840ab104f, type: 3}
      propertyPath: m_LocalPosition.x
      value: -0.0021915
      objectReference: {fileID: 0}
    - target: {fileID: -8679921383154817045, guid: aa40f99312d1de0479c1da7840ab104f, type: 3}
      propertyPath: m_LocalPosition.y
      value: 0.009
      objectReference: {fileID: 0}
    - target: {fileID: -8679921383154817045, guid: aa40f99312d1de0479c1da7840ab104f, type: 3}
      propertyPath: m_LocalPosition.z
      value: 0.000055135
      objectReference: {fileID: 0}
    - target: {fileID: -8679921383154817045, guid: aa40f99312d1de0479c1da7840ab104f, type: 3}
      propertyPath: m_LocalRotation.w
      value: 0.7071068
      objectReference: {fileID: 0}
    - target: {fileID: -8679921383154817045, guid: aa40f99312d1de0479c1da7840ab104f, type: 3}
      propertyPath: m_LocalRotation.x
      value: 0
      objectReference: {fileID: 0}
    - target: {fileID: -8679921383154817045, guid: aa40f99312d1de0479c1da7840ab104f, type: 3}
      propertyPath: m_LocalRotation.y
      value: -0.7071068
      objectReference: {fileID: 0}
    - target: {fileID: -8679921383154817045, guid: aa40f99312d1de0479c1da7840ab104f, type: 3}
      propertyPath: m_LocalRotation.z
      value: 0
      objectReference: {fileID: 0}
    - target: {fileID: -8679921383154817045, guid: aa40f99312d1de0479c1da7840ab104f, type: 3}
      propertyPath: m_LocalEulerAnglesHint.x
      value: 0
      objectReference: {fileID: 0}
    - target: {fileID: -8679921383154817045, guid: aa40f99312d1de0479c1da7840ab104f, type: 3}
      propertyPath: m_LocalEulerAnglesHint.y
      value: -90
      objectReference: {fileID: 0}
    - target: {fileID: -8679921383154817045, guid: aa40f99312d1de0479c1da7840ab104f, type: 3}
      propertyPath: m_LocalEulerAnglesHint.z
      value: 0
      objectReference: {fileID: 0}
    - target: {fileID: 919132149155446097, guid: aa40f99312d1de0479c1da7840ab104f, type: 3}
      propertyPath: m_Name
      value: NINJA1
      objectReference: {fileID: 0}
    - target: {fileID: 5866666021909216657, guid: aa40f99312d1de0479c1da7840ab104f, type: 3}
      propertyPath: m_Controller
      value: 
      objectReference: {fileID: 9100000, guid: 2991dadd9739c664291dc7c94e78e632, type: 2}
    - target: {fileID: 5866666021909216657, guid: aa40f99312d1de0479c1da7840ab104f, type: 3}
      propertyPath: m_CullingMode
      value: 0
      objectReference: {fileID: 0}
    - target: {fileID: 5866666021909216657, guid: aa40f99312d1de0479c1da7840ab104f, type: 3}
      propertyPath: m_ApplyRootMotion
      value: 0
      objectReference: {fileID: 0}
    m_RemovedComponents: []
  m_SourcePrefab: {fileID: 100100000, guid: aa40f99312d1de0479c1da7840ab104f, type: 3}
--- !u!1 &5245229782959125392 stripped
GameObject:
  m_CorrespondingSourceObject: {fileID: 919132149155446097, guid: aa40f99312d1de0479c1da7840ab104f, type: 3}
  m_PrefabInstance: {fileID: 4903194466604469953}
  m_PrefabAsset: {fileID: 0}
--- !u!4 &4864199991471876394 stripped
Transform:
  m_CorrespondingSourceObject: {fileID: -8679921383154817045, guid: aa40f99312d1de0479c1da7840ab104f, type: 3}
  m_PrefabInstance: {fileID: 4903194466604469953}
  m_PrefabAsset: {fileID: 0}
--- !u!4 &2177421924412185346 stripped
Transform:
  m_CorrespondingSourceObject: {fileID: 6502182839619065283, guid: aa40f99312d1de0479c1da7840ab104f, type: 3}
  m_PrefabInstance: {fileID: 4903194466604469953}
  m_PrefabAsset: {fileID: 0}
--- !u!4 &6754847116179616009 stripped
Transform:
  m_CorrespondingSourceObject: {fileID: 1852576806548013000, guid: aa40f99312d1de0479c1da7840ab104f, type: 3}
  m_PrefabInstance: {fileID: 4903194466604469953}
  m_PrefabAsset: {fileID: 0}
--- !u!114 &7140715375833249277
MonoBehaviour:
  m_ObjectHideFlags: 0
  m_CorrespondingSourceObject: {fileID: 0}
  m_PrefabInstance: {fileID: 0}
  m_PrefabAsset: {fileID: 0}
  m_GameObject: {fileID: 5245229782959125392}
  m_Enabled: 1
  m_EditorHideFlags: 0
  m_Script: {fileID: 11500000, guid: 3823eadb584051942908677b03d951e9, type: 3}
  m_Name: 
  m_EditorClassIdentifier: 
  currentDirection: 0
  DustEffectLand: {fileID: 115594, guid: 6c925d90c8ae6b148b428e7fe79c3f71, type: 3}
  DustEffectJump: {fileID: 1350558754252556, guid: aa01e8fe85c4b55498cb17f0e85d5b2f, type: 3}
  HitEffect: {fileID: 115594, guid: efd3011863918584d94591e177fa8d29, type: 3}
  DefendEffect: {fileID: 194486, guid: 103ca3ac1720c8445935db20b30e3305, type: 3}
  animator: {fileID: 0}
--- !u!1001 &7453967843772735995
PrefabInstance:
  m_ObjectHideFlags: 0
  serializedVersion: 2
  m_Modification:
    m_TransformParent: {fileID: 6754847116179616009}
    m_Modifications:
    - target: {fileID: -8679921383154817045, guid: f29f15a0498f72741b63713962a9a007, type: 3}
      propertyPath: m_RootOrder
      value: 3
      objectReference: {fileID: 0}
    - target: {fileID: -8679921383154817045, guid: f29f15a0498f72741b63713962a9a007, type: 3}
      propertyPath: m_LocalPosition.x
      value: -0.062
      objectReference: {fileID: 0}
    - target: {fileID: -8679921383154817045, guid: f29f15a0498f72741b63713962a9a007, type: 3}
      propertyPath: m_LocalPosition.y
      value: 0.2511
      objectReference: {fileID: 0}
    - target: {fileID: -8679921383154817045, guid: f29f15a0498f72741b63713962a9a007, type: 3}
      propertyPath: m_LocalPosition.z
      value: 0.0555
      objectReference: {fileID: 0}
    - target: {fileID: -8679921383154817045, guid: f29f15a0498f72741b63713962a9a007, type: 3}
      propertyPath: m_LocalRotation.w
      value: -0.57547075
      objectReference: {fileID: 0}
    - target: {fileID: -8679921383154817045, guid: f29f15a0498f72741b63713962a9a007, type: 3}
      propertyPath: m_LocalRotation.x
      value: 0.5836196
      objectReference: {fileID: 0}
    - target: {fileID: -8679921383154817045, guid: f29f15a0498f72741b63713962a9a007, type: 3}
      propertyPath: m_LocalRotation.y
      value: 0.40098453
      objectReference: {fileID: 0}
    - target: {fileID: -8679921383154817045, guid: f29f15a0498f72741b63713962a9a007, type: 3}
      propertyPath: m_LocalRotation.z
      value: -0.40918583
      objectReference: {fileID: 0}
    - target: {fileID: -8679921383154817045, guid: f29f15a0498f72741b63713962a9a007, type: 3}
      propertyPath: m_LocalEulerAnglesHint.x
      value: -174.325
      objectReference: {fileID: 0}
    - target: {fileID: -8679921383154817045, guid: f29f15a0498f72741b63713962a9a007, type: 3}
      propertyPath: m_LocalEulerAnglesHint.y
      value: -90
      objectReference: {fileID: 0}
    - target: {fileID: -8679921383154817045, guid: f29f15a0498f72741b63713962a9a007, type: 3}
      propertyPath: m_LocalEulerAnglesHint.z
      value: 90
      objectReference: {fileID: 0}
    - target: {fileID: 919132149155446097, guid: f29f15a0498f72741b63713962a9a007, type: 3}
      propertyPath: m_Name
      value: RightNinjaSword
      objectReference: {fileID: 0}
    m_RemovedComponents: []
  m_SourcePrefab: {fileID: 100100000, guid: f29f15a0498f72741b63713962a9a007, type: 3}
